<?xml version="1.0" encoding="utf-8"?>
<!DOCTYPE eagle SYSTEM "eagle.dtd">
<eagle version="7.7.0">
<drawing>
<settings>
<setting alwaysvectorfont="no"/>
<setting verticaltext="up"/>
</settings>
<grid distance="0.05" unitdist="inch" unit="inch" style="dots" multiple="1" display="yes" altdistance="0.01" altunitdist="inch" altunit="inch"/>
<layers>
<layer number="1" name="Top" color="4" fill="1" visible="yes" active="yes"/>
<layer number="2" name="Route2" color="1" fill="3" visible="no" active="no"/>
<layer number="3" name="Route3" color="4" fill="3" visible="no" active="no"/>
<layer number="14" name="Route14" color="1" fill="6" visible="no" active="no"/>
<layer number="15" name="Route15" color="4" fill="6" visible="no" active="no"/>
<layer number="16" name="Bottom" color="1" fill="1" visible="yes" active="yes"/>
<layer number="17" name="Pads" color="2" fill="1" visible="yes" active="yes"/>
<layer number="18" name="Vias" color="2" fill="1" visible="yes" active="yes"/>
<layer number="19" name="Unrouted" color="6" fill="1" visible="yes" active="yes"/>
<layer number="20" name="Dimension" color="15" fill="1" visible="yes" active="yes"/>
<layer number="21" name="tPlace" color="7" fill="1" visible="yes" active="yes"/>
<layer number="22" name="bPlace" color="7" fill="1" visible="yes" active="yes"/>
<layer number="23" name="tOrigins" color="15" fill="1" visible="yes" active="yes"/>
<layer number="24" name="bOrigins" color="15" fill="1" visible="yes" active="yes"/>
<layer number="25" name="tNames" color="7" fill="1" visible="yes" active="yes"/>
<layer number="26" name="bNames" color="7" fill="1" visible="yes" active="yes"/>
<layer number="27" name="tValues" color="7" fill="1" visible="no" active="yes"/>
<layer number="28" name="bValues" color="7" fill="1" visible="no" active="yes"/>
<layer number="29" name="tStop" color="7" fill="3" visible="no" active="yes"/>
<layer number="30" name="bStop" color="7" fill="6" visible="no" active="yes"/>
<layer number="31" name="tCream" color="7" fill="4" visible="no" active="yes"/>
<layer number="32" name="bCream" color="7" fill="5" visible="no" active="yes"/>
<layer number="33" name="tFinish" color="6" fill="3" visible="no" active="yes"/>
<layer number="34" name="bFinish" color="6" fill="6" visible="no" active="yes"/>
<layer number="35" name="tGlue" color="7" fill="4" visible="no" active="yes"/>
<layer number="36" name="bGlue" color="7" fill="5" visible="no" active="yes"/>
<layer number="37" name="tTest" color="7" fill="1" visible="no" active="yes"/>
<layer number="38" name="bTest" color="7" fill="1" visible="no" active="yes"/>
<layer number="39" name="tKeepout" color="4" fill="11" visible="no" active="yes"/>
<layer number="40" name="bKeepout" color="1" fill="11" visible="yes" active="yes"/>
<layer number="41" name="tRestrict" color="4" fill="10" visible="yes" active="yes"/>
<layer number="42" name="bRestrict" color="1" fill="10" visible="yes" active="yes"/>
<layer number="43" name="vRestrict" color="2" fill="10" visible="yes" active="yes"/>
<layer number="44" name="Drills" color="7" fill="1" visible="no" active="yes"/>
<layer number="45" name="Holes" color="7" fill="1" visible="yes" active="yes"/>
<layer number="46" name="Milling" color="3" fill="1" visible="no" active="yes"/>
<layer number="47" name="Measures" color="7" fill="1" visible="no" active="yes"/>
<layer number="48" name="Document" color="7" fill="1" visible="yes" active="yes"/>
<layer number="49" name="Reference" color="7" fill="1" visible="yes" active="yes"/>
<layer number="50" name="dxf" color="7" fill="1" visible="no" active="yes"/>
<layer number="51" name="tDocu" color="7" fill="1" visible="no" active="yes"/>
<layer number="52" name="bDocu" color="7" fill="1" visible="yes" active="yes"/>
<layer number="53" name="tGND_GNDA" color="7" fill="9" visible="no" active="no"/>
<layer number="54" name="bGND_GNDA" color="1" fill="9" visible="no" active="no"/>
<layer number="56" name="wert" color="7" fill="1" visible="yes" active="yes"/>
<layer number="57" name="tCAD" color="7" fill="1" visible="no" active="no"/>
<layer number="59" name="tCarbon" color="7" fill="1" visible="no" active="no"/>
<layer number="60" name="bCarbon" color="7" fill="1" visible="no" active="no"/>
<layer number="90" name="Modules" color="5" fill="1" visible="no" active="no"/>
<layer number="91" name="Nets" color="2" fill="1" visible="no" active="no"/>
<layer number="92" name="Busses" color="1" fill="1" visible="no" active="no"/>
<layer number="93" name="Pins" color="2" fill="1" visible="no" active="no"/>
<layer number="94" name="Symbols" color="4" fill="1" visible="no" active="no"/>
<layer number="95" name="Names" color="7" fill="1" visible="no" active="no"/>
<layer number="96" name="Values" color="7" fill="1" visible="no" active="no"/>
<layer number="97" name="Info" color="7" fill="1" visible="no" active="no"/>
<layer number="98" name="Guide" color="6" fill="1" visible="no" active="no"/>
<layer number="99" name="SpiceOrder" color="7" fill="1" visible="no" active="no"/>
<layer number="100" name="Muster" color="7" fill="1" visible="no" active="no"/>
<layer number="101" name="Patch_Top" color="12" fill="4" visible="yes" active="yes"/>
<layer number="102" name="Vscore" color="7" fill="1" visible="yes" active="yes"/>
<layer number="103" name="fp3" color="7" fill="1" visible="no" active="yes"/>
<layer number="104" name="Name" color="7" fill="1" visible="yes" active="yes"/>
<layer number="105" name="Beschreib" color="9" fill="1" visible="yes" active="yes"/>
<layer number="106" name="BGA-Top" color="4" fill="1" visible="yes" active="yes"/>
<layer number="107" name="BD-Top" color="5" fill="1" visible="yes" active="yes"/>
<layer number="108" name="fp8" color="7" fill="1" visible="no" active="yes"/>
<layer number="109" name="fp9" color="7" fill="1" visible="no" active="yes"/>
<layer number="110" name="fp0" color="7" fill="1" visible="no" active="yes"/>
<layer number="111" name="LPC17xx" color="7" fill="1" visible="yes" active="yes"/>
<layer number="112" name="tSilk" color="7" fill="1" visible="yes" active="yes"/>
<layer number="113" name="IDFDebug" color="7" fill="1" visible="yes" active="yes"/>
<layer number="114" name="Badge_Outline" color="11" fill="1" visible="no" active="no"/>
<layer number="116" name="Patch_BOT" color="9" fill="4" visible="yes" active="yes"/>
<layer number="118" name="Rect_Pads" color="7" fill="1" visible="yes" active="yes"/>
<layer number="121" name="_tsilk" color="7" fill="1" visible="yes" active="yes"/>
<layer number="122" name="_bsilk" color="7" fill="1" visible="yes" active="yes"/>
<layer number="123" name="tTestmark" color="7" fill="1" visible="no" active="yes"/>
<layer number="124" name="bTestmark" color="7" fill="1" visible="no" active="yes"/>
<layer number="125" name="_tNames" color="7" fill="1" visible="yes" active="yes"/>
<layer number="126" name="_bNames" color="7" fill="1" visible="yes" active="yes"/>
<layer number="127" name="_tValues" color="7" fill="1" visible="yes" active="yes"/>
<layer number="128" name="_bValues" color="7" fill="1" visible="yes" active="yes"/>
<layer number="129" name="Mask" color="7" fill="1" visible="yes" active="yes"/>
<layer number="131" name="tAdjust" color="7" fill="1" visible="no" active="yes"/>
<layer number="132" name="bAdjust" color="7" fill="1" visible="no" active="yes"/>
<layer number="144" name="Drill_legend" color="7" fill="1" visible="yes" active="yes"/>
<layer number="150" name="Notes" color="7" fill="1" visible="no" active="yes"/>
<layer number="151" name="HeatSink" color="7" fill="1" visible="yes" active="yes"/>
<layer number="152" name="_bDocu" color="7" fill="1" visible="yes" active="yes"/>
<layer number="153" name="FabDoc1" color="6" fill="1" visible="no" active="no"/>
<layer number="154" name="FabDoc2" color="2" fill="1" visible="no" active="no"/>
<layer number="155" name="FabDoc3" color="7" fill="15" visible="no" active="no"/>
<layer number="199" name="Contour" color="7" fill="1" visible="yes" active="yes"/>
<layer number="200" name="200bmp" color="1" fill="10" visible="yes" active="yes"/>
<layer number="201" name="201bmp" color="2" fill="1" visible="no" active="no"/>
<layer number="202" name="202bmp" color="3" fill="1" visible="no" active="no"/>
<layer number="203" name="203bmp" color="4" fill="10" visible="yes" active="yes"/>
<layer number="204" name="204bmp" color="5" fill="10" visible="yes" active="yes"/>
<layer number="205" name="205bmp" color="6" fill="10" visible="yes" active="yes"/>
<layer number="206" name="206bmp" color="7" fill="10" visible="yes" active="yes"/>
<layer number="207" name="207bmp" color="8" fill="10" visible="yes" active="yes"/>
<layer number="208" name="208bmp" color="9" fill="10" visible="yes" active="yes"/>
<layer number="209" name="209bmp" color="7" fill="1" visible="no" active="yes"/>
<layer number="210" name="210bmp" color="7" fill="1" visible="no" active="yes"/>
<layer number="211" name="211bmp" color="7" fill="1" visible="yes" active="yes"/>
<layer number="212" name="212bmp" color="7" fill="1" visible="yes" active="yes"/>
<layer number="213" name="213bmp" color="7" fill="1" visible="yes" active="yes"/>
<layer number="214" name="214bmp" color="7" fill="1" visible="yes" active="yes"/>
<layer number="215" name="215bmp" color="7" fill="1" visible="yes" active="yes"/>
<layer number="216" name="216bmp" color="7" fill="1" visible="yes" active="yes"/>
<layer number="217" name="217bmp" color="18" fill="1" visible="no" active="no"/>
<layer number="218" name="218bmp" color="19" fill="1" visible="no" active="no"/>
<layer number="219" name="219bmp" color="20" fill="1" visible="no" active="no"/>
<layer number="220" name="220bmp" color="21" fill="1" visible="no" active="no"/>
<layer number="221" name="221bmp" color="22" fill="1" visible="no" active="no"/>
<layer number="222" name="222bmp" color="23" fill="1" visible="no" active="no"/>
<layer number="223" name="223bmp" color="24" fill="1" visible="no" active="no"/>
<layer number="224" name="224bmp" color="25" fill="1" visible="no" active="no"/>
<layer number="225" name="225bmp" color="7" fill="1" visible="yes" active="yes"/>
<layer number="226" name="226bmp" color="7" fill="1" visible="yes" active="yes"/>
<layer number="227" name="227bmp" color="7" fill="1" visible="yes" active="yes"/>
<layer number="228" name="228bmp" color="7" fill="1" visible="yes" active="yes"/>
<layer number="229" name="229bmp" color="7" fill="1" visible="yes" active="yes"/>
<layer number="230" name="230bmp" color="7" fill="1" visible="yes" active="yes"/>
<layer number="231" name="231bmp" color="7" fill="1" visible="yes" active="yes"/>
<layer number="248" name="Housing" color="7" fill="1" visible="yes" active="yes"/>
<layer number="249" name="Edge" color="7" fill="1" visible="yes" active="yes"/>
<layer number="250" name="Descript" color="7" fill="1" visible="no" active="no"/>
<layer number="251" name="SMDround" color="7" fill="1" visible="no" active="no"/>
<layer number="254" name="cooling" color="7" fill="1" visible="yes" active="yes"/>
<layer number="255" name="routoute" color="7" fill="1" visible="yes" active="yes"/>
</layers>
<board>
<plain>
<hole x="3.81" y="2.54" drill="3.2"/>
<hole x="29.21" y="2.54" drill="3.2"/>
<hole x="29.21" y="44.45" drill="3.2"/>
<hole x="3.81" y="44.45" drill="3.2"/>
<wire x1="2.54" y1="0" x2="31.75" y2="0" width="0" layer="20"/>
<wire x1="0" y1="44.45" x2="0" y2="2.54" width="0" layer="20"/>
<wire x1="0" y1="44.45" x2="2.54" y2="46.99" width="0" layer="20" curve="-90"/>
<wire x1="2.54" y1="46.99" x2="31.75" y2="46.99" width="0" layer="20"/>
<wire x1="34.29" y1="44.45" x2="34.29" y2="2.54" width="0" layer="20"/>
<wire x1="31.75" y1="46.99" x2="34.29" y2="44.45" width="0" layer="20" curve="-90"/>
<wire x1="34.29" y1="2.54" x2="31.75" y2="0" width="0" layer="20" curve="-90"/>
<wire x1="2.54" y1="0" x2="0" y2="2.54" width="0" layer="20" curve="-90"/>
<wire x1="46.99" y1="22.86" x2="27.94" y2="22.86" width="0.254" layer="21"/>
<wire x1="27.94" y1="22.86" x2="27.94" y2="5.08" width="0.254" layer="21"/>
<wire x1="27.94" y1="5.08" x2="46.99" y2="5.08" width="0.254" layer="21"/>
<wire x1="46.99" y1="5.08" x2="46.99" y2="22.86" width="0.254" layer="21"/>
<wire x1="6.35" y1="22.86" x2="6.35" y2="5.08" width="0.254" layer="21"/>
<wire x1="6.35" y1="22.86" x2="-12.7" y2="22.86" width="0.254" layer="21"/>
<wire x1="-12.7" y1="5.08" x2="6.35" y2="5.08" width="0.254" layer="21"/>
<wire x1="-12.7" y1="22.86" x2="-12.7" y2="5.08" width="0.254" layer="21"/>
<text x="33.655" y="5.715" size="1.016" layer="25" font="vector" rot="R90">Pololu load
current sensor</text>
<text x="3.175" y="5.715" size="1.016" layer="25" font="vector" rot="R90">Pololu charge
current sensor</text>
<text x="4.953" y="38.227" size="1.016" layer="25" font="vector" rot="R180" align="center">USB goes
at this end</text>
<text x="33.02" y="32.512" size="1.778" layer="26" font="vector" rot="MR0" align="center-left">UNC-IMS
Power-Monitoring
Version 1.2</text>
<text x="9.398" y="33.02" size="1.778" layer="25" font="vector" align="center-left">GND
RX1
TX1</text>
<text x="6.858" y="13.97" size="0.889" layer="25" font="vector" align="center-left">0-5V

5VDC

GND</text>
<text x="24.384" y="13.97" size="0.889" layer="25" font="vector" rot="R180" align="center-right">GND

5VDC

0-5V</text>
<text x="10.668" y="10.16" size="1.27" layer="25" font="vector" align="center-left">+12V
Sense</text>
<text x="20.066" y="9.652" size="1.27" layer="25" font="vector" align="center-left">GND</text>
</plain>
<libraries>
<library name="neve_ims">
<packages>
<package name="SOP50P490X110-10N">
<smd name="1" x="-2.1844" y="0.9906" dx="1.4224" dy="0.2794" layer="1"/>
<smd name="2" x="-2.1844" y="0.508" dx="1.4224" dy="0.2794" layer="1"/>
<smd name="3" x="-2.1844" y="0" dx="1.4224" dy="0.2794" layer="1"/>
<smd name="4" x="-2.1844" y="-0.508" dx="1.4224" dy="0.2794" layer="1"/>
<smd name="5" x="-2.1844" y="-0.9906" dx="1.4224" dy="0.2794" layer="1"/>
<smd name="6" x="2.1844" y="-0.9906" dx="1.4224" dy="0.2794" layer="1"/>
<smd name="7" x="2.1844" y="-0.508" dx="1.4224" dy="0.2794" layer="1"/>
<smd name="8" x="2.1844" y="0" dx="1.4224" dy="0.2794" layer="1"/>
<smd name="9" x="2.1844" y="0.508" dx="1.4224" dy="0.2794" layer="1"/>
<smd name="10" x="2.1844" y="0.9906" dx="1.4224" dy="0.2794" layer="1"/>
<wire x1="-1.5494" y1="0.8636" x2="-1.5494" y2="1.143" width="0" layer="51"/>
<wire x1="-1.5494" y1="1.143" x2="-2.5146" y2="1.143" width="0" layer="51"/>
<wire x1="-2.5146" y1="1.143" x2="-2.5146" y2="0.8636" width="0" layer="51"/>
<wire x1="-2.5146" y1="0.8636" x2="-1.5494" y2="0.8636" width="0" layer="51"/>
<wire x1="-1.5494" y1="0.3556" x2="-1.5494" y2="0.635" width="0" layer="51"/>
<wire x1="-1.5494" y1="0.635" x2="-2.5146" y2="0.635" width="0" layer="51"/>
<wire x1="-2.5146" y1="0.635" x2="-2.5146" y2="0.3556" width="0" layer="51"/>
<wire x1="-2.5146" y1="0.3556" x2="-1.5494" y2="0.3556" width="0" layer="51"/>
<wire x1="-1.5494" y1="-0.127" x2="-1.5494" y2="0.127" width="0" layer="51"/>
<wire x1="-1.5494" y1="0.127" x2="-2.5146" y2="0.127" width="0" layer="51"/>
<wire x1="-2.5146" y1="0.127" x2="-2.5146" y2="-0.127" width="0" layer="51"/>
<wire x1="-2.5146" y1="-0.127" x2="-1.5494" y2="-0.127" width="0" layer="51"/>
<wire x1="-1.5494" y1="-0.635" x2="-1.5494" y2="-0.3556" width="0" layer="51"/>
<wire x1="-1.5494" y1="-0.3556" x2="-2.5146" y2="-0.3556" width="0" layer="51"/>
<wire x1="-2.5146" y1="-0.3556" x2="-2.5146" y2="-0.635" width="0" layer="51"/>
<wire x1="-2.5146" y1="-0.635" x2="-1.5494" y2="-0.635" width="0" layer="51"/>
<wire x1="-1.5494" y1="-1.143" x2="-1.5494" y2="-0.8636" width="0" layer="51"/>
<wire x1="-1.5494" y1="-0.8636" x2="-2.5146" y2="-0.8636" width="0" layer="51"/>
<wire x1="-2.5146" y1="-0.8636" x2="-2.5146" y2="-1.143" width="0" layer="51"/>
<wire x1="-2.5146" y1="-1.143" x2="-1.5494" y2="-1.143" width="0" layer="51"/>
<wire x1="1.5494" y1="-0.8636" x2="1.5494" y2="-1.143" width="0" layer="51"/>
<wire x1="1.5494" y1="-1.143" x2="2.5146" y2="-1.143" width="0" layer="51"/>
<wire x1="2.5146" y1="-1.143" x2="2.5146" y2="-0.8636" width="0" layer="51"/>
<wire x1="2.5146" y1="-0.8636" x2="1.5494" y2="-0.8636" width="0" layer="51"/>
<wire x1="1.5494" y1="-0.3556" x2="1.5494" y2="-0.635" width="0" layer="51"/>
<wire x1="1.5494" y1="-0.635" x2="2.5146" y2="-0.635" width="0" layer="51"/>
<wire x1="2.5146" y1="-0.635" x2="2.5146" y2="-0.3556" width="0" layer="51"/>
<wire x1="2.5146" y1="-0.3556" x2="1.5494" y2="-0.3556" width="0" layer="51"/>
<wire x1="1.5494" y1="0.127" x2="1.5494" y2="-0.127" width="0" layer="51"/>
<wire x1="1.5494" y1="-0.127" x2="2.5146" y2="-0.127" width="0" layer="51"/>
<wire x1="2.5146" y1="-0.127" x2="2.5146" y2="0.127" width="0" layer="51"/>
<wire x1="2.5146" y1="0.127" x2="1.5494" y2="0.127" width="0" layer="51"/>
<wire x1="1.5494" y1="0.635" x2="1.5494" y2="0.3556" width="0" layer="51"/>
<wire x1="1.5494" y1="0.3556" x2="2.5146" y2="0.3556" width="0" layer="51"/>
<wire x1="2.5146" y1="0.3556" x2="2.5146" y2="0.635" width="0" layer="51"/>
<wire x1="2.5146" y1="0.635" x2="1.5494" y2="0.635" width="0" layer="51"/>
<wire x1="1.5494" y1="1.143" x2="1.5494" y2="0.8636" width="0" layer="51"/>
<wire x1="1.5494" y1="0.8636" x2="2.5146" y2="0.8636" width="0" layer="51"/>
<wire x1="2.5146" y1="0.8636" x2="2.5146" y2="1.143" width="0" layer="51"/>
<wire x1="2.5146" y1="1.143" x2="1.5494" y2="1.143" width="0" layer="51"/>
<wire x1="-1.5494" y1="-1.5494" x2="1.5494" y2="-1.5494" width="0" layer="51"/>
<wire x1="1.5494" y1="-1.5494" x2="1.5494" y2="1.5494" width="0" layer="51"/>
<wire x1="1.5494" y1="1.5494" x2="0.3048" y2="1.5494" width="0" layer="51"/>
<wire x1="0.3048" y1="1.5494" x2="-0.3048" y2="1.5494" width="0" layer="51"/>
<wire x1="-0.3048" y1="1.5494" x2="-1.5494" y2="1.5494" width="0" layer="51"/>
<wire x1="-1.5494" y1="1.5494" x2="-1.5494" y2="-1.5494" width="0" layer="51"/>
<wire x1="0.3048" y1="1.5494" x2="-0.3048" y2="1.5494" width="0" layer="51" curve="-180"/>
<text x="-2.9972" y="1.143" size="1.27" layer="51" ratio="6" rot="SR0">*</text>
<wire x1="3.2004" y1="1.016" x2="4.191" y2="1.016" width="0.1524" layer="21"/>
<wire x1="-1.5494" y1="-1.5494" x2="1.5494" y2="-1.5494" width="0.1524" layer="21"/>
<wire x1="1.5494" y1="1.5494" x2="0.3048" y2="1.5494" width="0.1524" layer="21"/>
<wire x1="0.3048" y1="1.5494" x2="-0.3048" y2="1.5494" width="0.1524" layer="21"/>
<wire x1="-0.3048" y1="1.5494" x2="-1.5494" y2="1.5494" width="0.1524" layer="21"/>
<wire x1="0.3048" y1="1.5494" x2="-0.3048" y2="1.5494" width="0.1524" layer="21" curve="-180"/>
<text x="-2.9972" y="1.143" size="1.27" layer="21" ratio="6" rot="SR0">*</text>
<text x="-3.4544" y="2.54" size="2.0828" layer="25" ratio="10" rot="SR0">&gt;NAME</text>
<text x="-3.4544" y="-4.445" size="2.0828" layer="27" ratio="10" rot="SR0">&gt;VALUE</text>
</package>
</packages>
</library>
<library name="SparkFun-Boards">
<description>&lt;h3&gt;SparkFun Electronics' preferred foot prints&lt;/h3&gt;
In this library you'll find boards and modules: Arduino footprints, breadboards, non-RF modules, etc.&lt;br&gt;&lt;br&gt;
We've spent an enormous amount of time creating and checking these footprints and parts, but it is the end user's responsibility to ensure correctness and suitablity for a given componet or application. If you enjoy using this library, please buy one of our products at www.sparkfun.com.
&lt;br&gt;&lt;br&gt;
&lt;b&gt;Licensing:&lt;/b&gt; Creative Commons ShareAlike 4.0 International - https://creativecommons.org/licenses/by-sa/4.0/ 
&lt;br&gt;&lt;br&gt;
You are welcome to use this library for commercial purposes. For attribution, we ask that when you begin to sell your device using our footprint, you email us with a link to the product being sold. We want bragging rights that we helped (in a very small part) to create your 8th world wonder. We would like the opportunity to feature your device on our homepage.</description>
<packages>
<package name="ARDUINO_PRO_MICRO">
<wire x1="-8.89" y1="16.51" x2="-8.89" y2="-16.51" width="0.127" layer="51"/>
<wire x1="-8.89" y1="-16.51" x2="8.89" y2="-16.51" width="0.127" layer="51"/>
<wire x1="8.89" y1="-16.51" x2="8.89" y2="16.51" width="0.127" layer="51"/>
<wire x1="8.89" y1="16.51" x2="-8.89" y2="16.51" width="0.127" layer="51"/>
<pad name="1" x="-7.62" y="12.7" drill="1.016" diameter="1.8796"/>
<pad name="2" x="-7.62" y="10.16" drill="1.016" diameter="1.8796"/>
<pad name="3" x="-7.62" y="7.62" drill="1.016" diameter="1.8796"/>
<pad name="4" x="-7.62" y="5.08" drill="1.016" diameter="1.8796"/>
<pad name="5" x="-7.62" y="2.54" drill="1.016" diameter="1.8796"/>
<pad name="6" x="-7.62" y="0" drill="1.016" diameter="1.8796"/>
<pad name="7" x="-7.62" y="-2.54" drill="1.016" diameter="1.8796"/>
<pad name="8" x="-7.62" y="-5.08" drill="1.016" diameter="1.8796"/>
<pad name="9" x="-7.62" y="-7.62" drill="1.016" diameter="1.8796"/>
<pad name="10" x="-7.62" y="-10.16" drill="1.016" diameter="1.8796"/>
<pad name="11" x="-7.62" y="-12.7" drill="1.016" diameter="1.8796"/>
<pad name="12" x="-7.62" y="-15.24" drill="1.016" diameter="1.8796"/>
<pad name="13" x="7.62" y="-15.24" drill="1.016" diameter="1.8796"/>
<pad name="14" x="7.62" y="-12.7" drill="1.016" diameter="1.8796"/>
<pad name="15" x="7.62" y="-10.16" drill="1.016" diameter="1.8796"/>
<pad name="16" x="7.62" y="-7.62" drill="1.016" diameter="1.8796"/>
<pad name="17" x="7.62" y="-5.08" drill="1.016" diameter="1.8796"/>
<pad name="18" x="7.62" y="-2.54" drill="1.016" diameter="1.8796"/>
<pad name="19" x="7.62" y="0" drill="1.016" diameter="1.8796"/>
<pad name="20" x="7.62" y="2.54" drill="1.016" diameter="1.8796"/>
<pad name="21" x="7.62" y="5.08" drill="1.016" diameter="1.8796"/>
<pad name="22" x="7.62" y="7.62" drill="1.016" diameter="1.8796"/>
<pad name="23" x="7.62" y="10.16" drill="1.016" diameter="1.8796"/>
<pad name="24" x="7.62" y="12.7" drill="1.016" diameter="1.8796"/>
<text x="-3.81" y="-13.97" size="1.27" layer="25">&gt;NAME</text>
<text x="-3.81" y="-15.875" size="1.27" layer="27">&gt;VALUE</text>
<wire x1="-3.81" y1="16.51" x2="-3.81" y2="17.78" width="0.127" layer="51"/>
<wire x1="-3.81" y1="17.78" x2="3.81" y2="17.78" width="0.127" layer="51"/>
<wire x1="3.81" y1="17.78" x2="3.81" y2="16.51" width="0.127" layer="51"/>
</package>
</packages>
</library>
<library name="pinhead">
<description>&lt;b&gt;Pin Header Connectors&lt;/b&gt;&lt;p&gt;
&lt;author&gt;Created by librarian@cadsoft.de&lt;/author&gt;</description>
<packages>
<package name="1X03">
<description>&lt;b&gt;PIN HEADER&lt;/b&gt;</description>
<wire x1="-3.175" y1="1.27" x2="-1.905" y2="1.27" width="0.1524" layer="21"/>
<wire x1="-1.905" y1="1.27" x2="-1.27" y2="0.635" width="0.1524" layer="21"/>
<wire x1="-1.27" y1="0.635" x2="-1.27" y2="-0.635" width="0.1524" layer="21"/>
<wire x1="-1.27" y1="-0.635" x2="-1.905" y2="-1.27" width="0.1524" layer="21"/>
<wire x1="-1.27" y1="0.635" x2="-0.635" y2="1.27" width="0.1524" layer="21"/>
<wire x1="-0.635" y1="1.27" x2="0.635" y2="1.27" width="0.1524" layer="21"/>
<wire x1="0.635" y1="1.27" x2="1.27" y2="0.635" width="0.1524" layer="21"/>
<wire x1="1.27" y1="0.635" x2="1.27" y2="-0.635" width="0.1524" layer="21"/>
<wire x1="1.27" y1="-0.635" x2="0.635" y2="-1.27" width="0.1524" layer="21"/>
<wire x1="0.635" y1="-1.27" x2="-0.635" y2="-1.27" width="0.1524" layer="21"/>
<wire x1="-0.635" y1="-1.27" x2="-1.27" y2="-0.635" width="0.1524" layer="21"/>
<wire x1="-3.81" y1="0.635" x2="-3.81" y2="-0.635" width="0.1524" layer="21"/>
<wire x1="-3.175" y1="1.27" x2="-3.81" y2="0.635" width="0.1524" layer="21"/>
<wire x1="-3.81" y1="-0.635" x2="-3.175" y2="-1.27" width="0.1524" layer="21"/>
<wire x1="-1.905" y1="-1.27" x2="-3.175" y2="-1.27" width="0.1524" layer="21"/>
<wire x1="1.27" y1="0.635" x2="1.905" y2="1.27" width="0.1524" layer="21"/>
<wire x1="1.905" y1="1.27" x2="3.175" y2="1.27" width="0.1524" layer="21"/>
<wire x1="3.175" y1="1.27" x2="3.81" y2="0.635" width="0.1524" layer="21"/>
<wire x1="3.81" y1="0.635" x2="3.81" y2="-0.635" width="0.1524" layer="21"/>
<wire x1="3.81" y1="-0.635" x2="3.175" y2="-1.27" width="0.1524" layer="21"/>
<wire x1="3.175" y1="-1.27" x2="1.905" y2="-1.27" width="0.1524" layer="21"/>
<wire x1="1.905" y1="-1.27" x2="1.27" y2="-0.635" width="0.1524" layer="21"/>
<pad name="1" x="-2.54" y="0" drill="1.016" shape="long" rot="R90"/>
<pad name="2" x="0" y="0" drill="1.016" shape="long" rot="R90"/>
<pad name="3" x="2.54" y="0" drill="1.016" shape="long" rot="R90"/>
<text x="-3.8862" y="1.8288" size="1.27" layer="25" ratio="10">&gt;NAME</text>
<text x="-3.81" y="-3.175" size="1.27" layer="27">&gt;VALUE</text>
<rectangle x1="-0.254" y1="-0.254" x2="0.254" y2="0.254" layer="51"/>
<rectangle x1="-2.794" y1="-0.254" x2="-2.286" y2="0.254" layer="51"/>
<rectangle x1="2.286" y1="-0.254" x2="2.794" y2="0.254" layer="51"/>
</package>
<package name="1X03/90">
<description>&lt;b&gt;PIN HEADER&lt;/b&gt;</description>
<wire x1="-3.81" y1="-1.905" x2="-1.27" y2="-1.905" width="0.1524" layer="21"/>
<wire x1="-1.27" y1="-1.905" x2="-1.27" y2="0.635" width="0.1524" layer="21"/>
<wire x1="-1.27" y1="0.635" x2="-3.81" y2="0.635" width="0.1524" layer="21"/>
<wire x1="-3.81" y1="0.635" x2="-3.81" y2="-1.905" width="0.1524" layer="21"/>
<wire x1="-2.54" y1="6.985" x2="-2.54" y2="1.27" width="0.762" layer="21"/>
<wire x1="-1.27" y1="-1.905" x2="1.27" y2="-1.905" width="0.1524" layer="21"/>
<wire x1="1.27" y1="-1.905" x2="1.27" y2="0.635" width="0.1524" layer="21"/>
<wire x1="1.27" y1="0.635" x2="-1.27" y2="0.635" width="0.1524" layer="21"/>
<wire x1="0" y1="6.985" x2="0" y2="1.27" width="0.762" layer="21"/>
<wire x1="1.27" y1="-1.905" x2="3.81" y2="-1.905" width="0.1524" layer="21"/>
<wire x1="3.81" y1="-1.905" x2="3.81" y2="0.635" width="0.1524" layer="21"/>
<wire x1="3.81" y1="0.635" x2="1.27" y2="0.635" width="0.1524" layer="21"/>
<wire x1="2.54" y1="6.985" x2="2.54" y2="1.27" width="0.762" layer="21"/>
<pad name="1" x="-2.54" y="-3.81" drill="1.016" shape="long" rot="R90"/>
<pad name="2" x="0" y="-3.81" drill="1.016" shape="long" rot="R90"/>
<pad name="3" x="2.54" y="-3.81" drill="1.016" shape="long" rot="R90"/>
<text x="-4.445" y="-3.81" size="1.27" layer="25" ratio="10" rot="R90">&gt;NAME</text>
<text x="5.715" y="-3.81" size="1.27" layer="27" rot="R90">&gt;VALUE</text>
<rectangle x1="-2.921" y1="0.635" x2="-2.159" y2="1.143" layer="21"/>
<rectangle x1="-0.381" y1="0.635" x2="0.381" y2="1.143" layer="21"/>
<rectangle x1="2.159" y1="0.635" x2="2.921" y2="1.143" layer="21"/>
<rectangle x1="-2.921" y1="-2.921" x2="-2.159" y2="-1.905" layer="21"/>
<rectangle x1="-0.381" y1="-2.921" x2="0.381" y2="-1.905" layer="21"/>
<rectangle x1="2.159" y1="-2.921" x2="2.921" y2="-1.905" layer="21"/>
</package>
</packages>
</library>
<library name="resistor">
<description>&lt;b&gt;Resistors, Capacitors, Inductors&lt;/b&gt;&lt;p&gt;
Based on the previous libraries:
&lt;ul&gt;
&lt;li&gt;r.lbr
&lt;li&gt;cap.lbr 
&lt;li&gt;cap-fe.lbr
&lt;li&gt;captant.lbr
&lt;li&gt;polcap.lbr
&lt;li&gt;ipc-smd.lbr
&lt;/ul&gt;
All SMD packages are defined according to the IPC specifications and  CECC&lt;p&gt;
&lt;author&gt;Created by librarian@cadsoft.de&lt;/author&gt;&lt;p&gt;
&lt;p&gt;
for Electrolyt Capacitors see also :&lt;p&gt;
www.bccomponents.com &lt;p&gt;
www.panasonic.com&lt;p&gt;
www.kemet.com&lt;p&gt;
&lt;p&gt;
for trimmer refence see : &lt;u&gt;www.electrospec-inc.com/cross_references/trimpotcrossref.asp&lt;/u&gt;&lt;p&gt;

&lt;map name="nav_main"&gt;
&lt;area shape="rect" coords="0,1,140,23" href="../military_specs.asp" title=""&gt;
&lt;area shape="rect" coords="0,24,140,51" href="../about.asp" title=""&gt;
&lt;area shape="rect" coords="1,52,140,77" href="../rfq.asp" title=""&gt;
&lt;area shape="rect" coords="0,78,139,103" href="../products.asp" title=""&gt;
&lt;area shape="rect" coords="1,102,138,128" href="../excess_inventory.asp" title=""&gt;
&lt;area shape="rect" coords="1,129,138,150" href="../edge.asp" title=""&gt;
&lt;area shape="rect" coords="1,151,139,178" href="../industry_links.asp" title=""&gt;
&lt;area shape="rect" coords="0,179,139,201" href="../comments.asp" title=""&gt;
&lt;area shape="rect" coords="1,203,138,231" href="../directory.asp" title=""&gt;
&lt;area shape="default" nohref&gt;
&lt;/map&gt;

&lt;html&gt;

&lt;title&gt;&lt;/title&gt;

 &lt;LINK REL="StyleSheet" TYPE="text/css" HREF="style-sheet.css"&gt;

&lt;body bgcolor="#ffffff" text="#000000" marginwidth="0" marginheight="0" topmargin="0" leftmargin="0"&gt;
&lt;table border=0 cellspacing=0 cellpadding=0 width="100%" cellpaddding=0 height="55%"&gt;
&lt;tr valign="top"&gt;

&lt;/td&gt;
&lt;! &lt;td width="10"&gt;&amp;nbsp;&lt;/td&gt;
&lt;td width="90%"&gt;

&lt;b&gt;&lt;font color="#0000FF" size="4"&gt;TRIM-POT CROSS REFERENCE&lt;/font&gt;&lt;/b&gt;
&lt;P&gt;
&lt;TABLE BORDER=0 CELLSPACING=1 CELLPADDING=2&gt;
  &lt;TR&gt;
    &lt;TD COLSPAN=8&gt;
      &lt;FONT SIZE=3 FACE=ARIAL&gt;&lt;B&gt;RECTANGULAR MULTI-TURN&lt;/B&gt;&lt;/FONT&gt;
    &lt;/TD&gt;
  &lt;/TR&gt;
  &lt;TR&gt;
    &lt;TD ALIGN=CENTER&gt;
      &lt;B&gt;
      &lt;FONT SIZE=3 FACE=ARIAL color="#FF0000"&gt;BOURNS&lt;/FONT&gt;
      &lt;/B&gt;
    &lt;/TD&gt;
    &lt;TD ALIGN=CENTER&gt;
      &lt;B&gt;
      &lt;FONT SIZE=3 FACE=ARIAL color="#FF0000"&gt;BI&amp;nbsp;TECH&lt;/FONT&gt;
      &lt;/B&gt;
    &lt;/TD&gt;
    &lt;TD ALIGN=CENTER&gt;
      &lt;B&gt;
      &lt;FONT SIZE=3 FACE=ARIAL color="#FF0000"&gt;DALE-VISHAY&lt;/FONT&gt;
      &lt;/B&gt;
    &lt;/TD&gt;
    &lt;TD ALIGN=CENTER&gt;
      &lt;B&gt;
      &lt;FONT SIZE=3 FACE=ARIAL color="#FF0000"&gt;PHILIPS/MEPCO&lt;/FONT&gt;
      &lt;/B&gt;
    &lt;/TD&gt;
    &lt;TD ALIGN=CENTER&gt;
      &lt;B&gt;
      &lt;FONT SIZE=3 FACE=ARIAL color="#FF0000"&gt;MURATA&lt;/FONT&gt;
      &lt;/B&gt;
    &lt;/TD&gt;
    &lt;TD ALIGN=CENTER&gt;
      &lt;B&gt;
      &lt;FONT SIZE=3 FACE=ARIAL color="#FF0000"&gt;PANASONIC&lt;/FONT&gt;
      &lt;/B&gt;
    &lt;/TD&gt;
    &lt;TD ALIGN=CENTER&gt;
      &lt;B&gt;
      &lt;FONT SIZE=3 FACE=ARIAL color="#FF0000"&gt;SPECTROL&lt;/FONT&gt;
      &lt;/B&gt;
    &lt;/TD&gt;
    &lt;TD ALIGN=CENTER&gt;
      &lt;B&gt;
      &lt;FONT SIZE=3 FACE=ARIAL color="#FF0000"&gt;MILSPEC&lt;/FONT&gt;
      &lt;/B&gt;
    &lt;/TD&gt;&lt;TD&gt;&amp;nbsp;&lt;/TD&gt;
  &lt;/TR&gt;
  &lt;TR&gt;
    &lt;TD BGCOLOR="#cccccc" ALIGN=CENTER&gt;&lt;FONT FACE=ARIAL SIZE=3 &gt;
      3005P&lt;BR&gt;
      3006P&lt;BR&gt;
      3006W&lt;BR&gt;
      3006Y&lt;BR&gt;
      3009P&lt;BR&gt;
      3009W&lt;BR&gt;
      3009Y&lt;BR&gt;
      3057J&lt;BR&gt;
      3057L&lt;BR&gt;
      3057P&lt;BR&gt;
      3057Y&lt;BR&gt;
      3059J&lt;BR&gt;
      3059L&lt;BR&gt;
      3059P&lt;BR&gt;
      3059Y&lt;BR&gt;&lt;/FONT&gt;
    &lt;/TD&gt;
    &lt;TD BGCOLOR="#cccccc" ALIGN=CENTER&gt;&lt;FONT FACE=ARIAL SIZE=3&gt;
      -&lt;BR&gt;
      89P&lt;BR&gt;
      89W&lt;BR&gt;
      89X&lt;BR&gt;
      89PH&lt;BR&gt;
      76P&lt;BR&gt;
      89XH&lt;BR&gt;
      78SLT&lt;BR&gt;
      78L&amp;nbsp;ALT&lt;BR&gt;
      56P&amp;nbsp;ALT&lt;BR&gt;
      78P&amp;nbsp;ALT&lt;BR&gt;
      T8S&lt;BR&gt;
      78L&lt;BR&gt;
      56P&lt;BR&gt;
      78P&lt;BR&gt;&lt;/FONT&gt;
    &lt;/TD&gt;
    &lt;TD BGCOLOR="#cccccc" ALIGN=CENTER&gt;&lt;FONT FACE=ARIAL SIZE=3&gt;
      -&lt;BR&gt;
      T18/784&lt;BR&gt;
      783&lt;BR&gt;
      781&lt;BR&gt;
      -&lt;BR&gt;
      -&lt;BR&gt;
      -&lt;BR&gt;
      2199&lt;BR&gt;
      1697/1897&lt;BR&gt;
      1680/1880&lt;BR&gt;
      2187&lt;BR&gt;
      -&lt;BR&gt;
      -&lt;BR&gt;
      -&lt;BR&gt;
      -&lt;BR&gt;&lt;/FONT&gt;
    &lt;/TD&gt;
    &lt;TD BGCOLOR="#cccccc" ALIGN=CENTER&gt;&lt;FONT FACE=ARIAL SIZE=3&gt;
      -&lt;BR&gt;
      8035EKP/CT20/RJ-20P&lt;BR&gt;
      -&lt;BR&gt;
      RJ-20X&lt;BR&gt;
      -&lt;BR&gt;
      -&lt;BR&gt;
      -&lt;BR&gt;
      1211L&lt;BR&gt;
      8012EKQ&amp;nbsp;ALT&lt;BR&gt;
      8012EKR&amp;nbsp;ALT&lt;BR&gt;
      1211P&lt;BR&gt;
      8012EKJ&lt;BR&gt;
      8012EKL&lt;BR&gt;
      8012EKQ&lt;BR&gt;
      8012EKR&lt;BR&gt;&lt;/FONT&gt;
    &lt;/TD&gt;
    &lt;TD BGCOLOR="#cccccc" ALIGN=CENTER&gt;&lt;FONT FACE=ARIAL SIZE=3&gt;
      -&lt;BR&gt;
      2101P&lt;BR&gt;
      2101W&lt;BR&gt;
      2101Y&lt;BR&gt;
      -&lt;BR&gt;
      -&lt;BR&gt;
      -&lt;BR&gt;
      -&lt;BR&gt;
      -&lt;BR&gt;
      -&lt;BR&gt;
      -&lt;BR&gt;
      -&lt;BR&gt;
      2102L&lt;BR&gt;
      2102S&lt;BR&gt;
      2102Y&lt;BR&gt;&lt;/FONT&gt;
    &lt;/TD&gt;
    &lt;TD BGCOLOR="#cccccc" ALIGN=CENTER&gt;&lt;FONT FACE=ARIAL SIZE=3&gt;
      -&lt;BR&gt;
      EVMCOG&lt;BR&gt;
      -&lt;BR&gt;
      -&lt;BR&gt;
      -&lt;BR&gt;
      -&lt;BR&gt;
      -&lt;BR&gt;
      -&lt;BR&gt;
      -&lt;BR&gt;
      -&lt;BR&gt;
      -&lt;BR&gt;
      -&lt;BR&gt;
      -&lt;BR&gt;
      -&lt;BR&gt;
      -&lt;BR&gt;&lt;/FONT&gt;
    &lt;/TD&gt;
    &lt;TD BGCOLOR="#cccccc" ALIGN=CENTER&gt;&lt;FONT FACE=ARIAL SIZE=3&gt;
      -&lt;BR&gt;
      43P&lt;BR&gt;
      43W&lt;BR&gt;
      43Y&lt;BR&gt;
      -&lt;BR&gt;
      -&lt;BR&gt;
      -&lt;BR&gt;
      -&lt;BR&gt;
      40L&lt;BR&gt;
      40P&lt;BR&gt;
      40Y&lt;BR&gt;
      70Y-T602&lt;BR&gt;
      70L&lt;BR&gt;
      70P&lt;BR&gt;
      70Y&lt;BR&gt;&lt;/FONT&gt;
    &lt;/TD&gt;
    &lt;TD BGCOLOR="#cccccc" ALIGN=CENTER&gt;&lt;FONT FACE=ARIAL SIZE=3&gt;
      -&lt;BR&gt;
      -&lt;BR&gt;
      -&lt;BR&gt;
      -&lt;BR&gt;
      -&lt;BR&gt;
      -&lt;BR&gt;
      -&lt;BR&gt;
      -&lt;BR&gt;
      RT/RTR12&lt;BR&gt;
      RT/RTR12&lt;BR&gt;
      RT/RTR12&lt;BR&gt;
      -&lt;BR&gt;
      RJ/RJR12&lt;BR&gt;
      RJ/RJR12&lt;BR&gt;
      RJ/RJR12&lt;BR&gt;&lt;/FONT&gt;
    &lt;/TD&gt;
  &lt;/TR&gt;
  &lt;TR&gt;
    &lt;TD COLSPAN=8&gt;&amp;nbsp;
    &lt;/TD&gt;
  &lt;/TR&gt;
  &lt;TR&gt;
    &lt;TD COLSPAN=8&gt;
      &lt;FONT SIZE=4 FACE=ARIAL&gt;&lt;B&gt;SQUARE MULTI-TURN&lt;/B&gt;&lt;/FONT&gt;
    &lt;/TD&gt;
  &lt;/TR&gt;
  &lt;TR&gt;
   &lt;TD ALIGN=CENTER&gt;
      &lt;FONT SIZE=3 FACE=ARIAL&gt;&lt;B&gt;BOURN&lt;/B&gt;&lt;/FONT&gt;
    &lt;/TD&gt;
    &lt;TD ALIGN=CENTER&gt;
      &lt;FONT SIZE=3 FACE=ARIAL&gt;&lt;B&gt;BI&amp;nbsp;TECH&lt;/B&gt;&lt;/FONT&gt;
    &lt;/TD&gt;
    &lt;TD ALIGN=CENTER&gt;
      &lt;FONT SIZE=3 FACE=ARIAL&gt;&lt;B&gt;DALE-VISHAY&lt;/B&gt;&lt;/FONT&gt;
    &lt;/TD&gt;
    &lt;TD ALIGN=CENTER&gt;
      &lt;FONT SIZE=3 FACE=ARIAL&gt;&lt;B&gt;PHILIPS/MEPCO&lt;/B&gt;&lt;/FONT&gt;
    &lt;/TD&gt;
    &lt;TD ALIGN=CENTER&gt;
      &lt;FONT SIZE=3 FACE=ARIAL&gt;&lt;B&gt;MURATA&lt;/B&gt;&lt;/FONT&gt;
    &lt;/TD&gt;
    &lt;TD ALIGN=CENTER&gt;
      &lt;FONT SIZE=3 FACE=ARIAL&gt;&lt;B&gt;PANASONIC&lt;/B&gt;&lt;/FONT&gt;
    &lt;/TD&gt;
    &lt;TD ALIGN=CENTER&gt;
      &lt;FONT SIZE=3 FACE=ARIAL&gt;&lt;B&gt;SPECTROL&lt;/B&gt;&lt;/FONT&gt;
    &lt;/TD&gt;
    &lt;TD ALIGN=CENTER&gt;
      &lt;FONT SIZE=3 FACE=ARIAL&gt;&lt;B&gt;MILSPEC&lt;/B&gt;&lt;/FONT&gt;
    &lt;/TD&gt;
  &lt;/TR&gt;
  &lt;TR&gt;
    &lt;TD BGCOLOR="#cccccc" ALIGN=CENTER&gt;&lt;FONT FACE=ARIAL SIZE=3&gt;
      3250L&lt;BR&gt;
      3250P&lt;BR&gt;
      3250W&lt;BR&gt;
      3250X&lt;BR&gt;
      3252P&lt;BR&gt;
      3252W&lt;BR&gt;
      3252X&lt;BR&gt;
      3260P&lt;BR&gt;
      3260W&lt;BR&gt;
      3260X&lt;BR&gt;
      3262P&lt;BR&gt;
      3262W&lt;BR&gt;
      3262X&lt;BR&gt;
      3266P&lt;BR&gt;
      3266W&lt;BR&gt;
      3266X&lt;BR&gt;
      3290H&lt;BR&gt;
      3290P&lt;BR&gt;
      3290W&lt;BR&gt;
      3292P&lt;BR&gt;
      3292W&lt;BR&gt;
      3292X&lt;BR&gt;
      3296P&lt;BR&gt;
      3296W&lt;BR&gt;
      3296X&lt;BR&gt;
      3296Y&lt;BR&gt;
      3296Z&lt;BR&gt;
      3299P&lt;BR&gt;
      3299W&lt;BR&gt;
      3299X&lt;BR&gt;
      3299Y&lt;BR&gt;
      3299Z&lt;BR&gt;&lt;/FONT&gt;
    &lt;/TD&gt;
    &lt;TD BGCOLOR="#cccccc" ALIGN=CENTER&gt;&lt;FONT FACE=ARIAL SIZE=3&gt;
      -&lt;BR&gt;
      66P&amp;nbsp;ALT&lt;BR&gt;
      66W&amp;nbsp;ALT&lt;BR&gt;
      66X&amp;nbsp;ALT&lt;BR&gt;
      66P&amp;nbsp;ALT&lt;BR&gt;
      66W&amp;nbsp;ALT&lt;BR&gt;
      66X&amp;nbsp;ALT&lt;BR&gt;
      -&lt;BR&gt;
      64W&amp;nbsp;ALT&lt;BR&gt;
      -&lt;BR&gt;
      64P&amp;nbsp;ALT&lt;BR&gt;
      64W&amp;nbsp;ALT&lt;BR&gt;
      64X&amp;nbsp;ALT&lt;BR&gt;
      64P&lt;BR&gt;
      64W&lt;BR&gt;
      64X&lt;BR&gt;
      66X&amp;nbsp;ALT&lt;BR&gt;
      66P&amp;nbsp;ALT&lt;BR&gt;
      66W&amp;nbsp;ALT&lt;BR&gt;
      66P&lt;BR&gt;
      66W&lt;BR&gt;
      66X&lt;BR&gt;
      67P&lt;BR&gt;
      67W&lt;BR&gt;
      67X&lt;BR&gt;
      67Y&lt;BR&gt;
      67Z&lt;BR&gt;
      68P&lt;BR&gt;
      68W&lt;BR&gt;
      68X&lt;BR&gt;
      67Y&amp;nbsp;ALT&lt;BR&gt;
      67Z&amp;nbsp;ALT&lt;BR&gt;&lt;/FONT&gt;
    &lt;/TD&gt;
    &lt;TD BGCOLOR="#cccccc" ALIGN=CENTER&gt;&lt;FONT FACE=ARIAL SIZE=3&gt;
      5050&lt;BR&gt;
      5091&lt;BR&gt;
      5080&lt;BR&gt;
      5087&lt;BR&gt;
      -&lt;BR&gt;
      -&lt;BR&gt;
      -&lt;BR&gt;
      -&lt;BR&gt;
      -&lt;BR&gt;
      -&lt;BR&gt;
      -&lt;BR&gt;
      T63YB&lt;BR&gt;
      T63XB&lt;BR&gt;
      -&lt;BR&gt;
      -&lt;BR&gt;
      -&lt;BR&gt;
      5887&lt;BR&gt;
      5891&lt;BR&gt;
      5880&lt;BR&gt;
      -&lt;BR&gt;
      -&lt;BR&gt;
      -&lt;BR&gt;
      T93Z&lt;BR&gt;
      T93YA&lt;BR&gt;
      T93XA&lt;BR&gt;
      T93YB&lt;BR&gt;
      T93XB&lt;BR&gt;
      -&lt;BR&gt;
      -&lt;BR&gt;
      -&lt;BR&gt;
      -&lt;BR&gt;
      -&lt;BR&gt;&lt;/FONT&gt;
    &lt;/TD&gt;
    &lt;TD BGCOLOR="#cccccc" ALIGN=CENTER&gt;&lt;FONT FACE=ARIAL SIZE=3&gt;
      -&lt;BR&gt;
      -&lt;BR&gt;
      -&lt;BR&gt;
      -&lt;BR&gt;
      -&lt;BR&gt;
      -&lt;BR&gt;
      -&lt;BR&gt;
      -&lt;BR&gt;
      -&lt;BR&gt;
      -&lt;BR&gt;
      8026EKP&lt;BR&gt;
      8026EKW&lt;BR&gt;
      8026EKM&lt;BR&gt;
      8026EKP&lt;BR&gt;
      8026EKB&lt;BR&gt;
      8026EKM&lt;BR&gt;
      1309X&lt;BR&gt;
      1309P&lt;BR&gt;
      1309W&lt;BR&gt;
      8024EKP&lt;BR&gt;
      8024EKW&lt;BR&gt;
      8024EKN&lt;BR&gt;
      RJ-9P/CT9P&lt;BR&gt;
      RJ-9W&lt;BR&gt;
      RJ-9X&lt;BR&gt;
      -&lt;BR&gt;
      -&lt;BR&gt;
      -&lt;BR&gt;
      -&lt;BR&gt;
      -&lt;BR&gt;
      -&lt;BR&gt;
      -&lt;BR&gt;&lt;/FONT&gt;
    &lt;/TD&gt;
    &lt;TD BGCOLOR="#cccccc" ALIGN=CENTER&gt;&lt;FONT FACE=ARIAL SIZE=3&gt;
      -&lt;BR&gt;
      -&lt;BR&gt;
      -&lt;BR&gt;
      -&lt;BR&gt;
      -&lt;BR&gt;
      -&lt;BR&gt;
      -&lt;BR&gt;
      -&lt;BR&gt;
      -&lt;BR&gt;
      -&lt;BR&gt;
      3103P&lt;BR&gt;
      3103Y&lt;BR&gt;
      3103Z&lt;BR&gt;
      3103P&lt;BR&gt;
      3103Y&lt;BR&gt;
      3103Z&lt;BR&gt;
      -&lt;BR&gt;
      -&lt;BR&gt;
      -&lt;BR&gt;
      -&lt;BR&gt;
      -&lt;BR&gt;
      -&lt;BR&gt;
      3105P/3106P&lt;BR&gt;
      3105W/3106W&lt;BR&gt;
      3105X/3106X&lt;BR&gt;
      3105Y/3106Y&lt;BR&gt;
      3105Z/3105Z&lt;BR&gt;
      3102P&lt;BR&gt;
      3102W&lt;BR&gt;
      3102X&lt;BR&gt;
      3102Y&lt;BR&gt;
      3102Z&lt;BR&gt;&lt;/FONT&gt;
    &lt;/TD&gt;
    &lt;TD BGCOLOR="#cccccc" ALIGN=CENTER&gt;&lt;FONT FACE=ARIAL SIZE=3&gt;
      -&lt;BR&gt;
      -&lt;BR&gt;
      -&lt;BR&gt;
      -&lt;BR&gt;
      -&lt;BR&gt;
      -&lt;BR&gt;
      -&lt;BR&gt;
      -&lt;BR&gt;
      -&lt;BR&gt;
      -&lt;BR&gt;
      -&lt;BR&gt;
      -&lt;BR&gt;
      -&lt;BR&gt;
      -&lt;BR&gt;
      -&lt;BR&gt;
      -&lt;BR&gt;
      -&lt;BR&gt;
      -&lt;BR&gt;
      -&lt;BR&gt;
      -&lt;BR&gt;
      -&lt;BR&gt;
      -&lt;BR&gt;
      EVMCBG&lt;BR&gt;
      EVMCCG&lt;BR&gt;
      -&lt;BR&gt;
      -&lt;BR&gt;
      -&lt;BR&gt;
      -&lt;BR&gt;
      -&lt;BR&gt;
      -&lt;BR&gt;
      -&lt;BR&gt;
      -&lt;BR&gt;&lt;/FONT&gt;
    &lt;/TD&gt;
    &lt;TD BGCOLOR="#cccccc" ALIGN=CENTER&gt;&lt;FONT FACE=ARIAL SIZE=3&gt;
      55-1-X&lt;BR&gt;
      55-4-X&lt;BR&gt;
      55-3-X&lt;BR&gt;
      55-2-X&lt;BR&gt;
      -&lt;BR&gt;
      -&lt;BR&gt;
      -&lt;BR&gt;
      -&lt;BR&gt;
      -&lt;BR&gt;
      -&lt;BR&gt;
      -&lt;BR&gt;
      -&lt;BR&gt;
      -&lt;BR&gt;
      -&lt;BR&gt;
      -&lt;BR&gt;
      -&lt;BR&gt;
      50-2-X&lt;BR&gt;
      50-4-X&lt;BR&gt;
      50-3-X&lt;BR&gt;
      -&lt;BR&gt;
      -&lt;BR&gt;
      -&lt;BR&gt;
      64P&lt;BR&gt;
      64W&lt;BR&gt;
      64X&lt;BR&gt;
      64Y&lt;BR&gt;
      64Z&lt;BR&gt;
      -&lt;BR&gt;
      -&lt;BR&gt;
      -&lt;BR&gt;
      -&lt;BR&gt;
      -&lt;BR&gt;&lt;/FONT&gt;
    &lt;/TD&gt;
    &lt;TD BGCOLOR="#cccccc" ALIGN=CENTER&gt;&lt;FONT FACE=ARIAL SIZE=3&gt;
      RT/RTR22&lt;BR&gt;
      RT/RTR22&lt;BR&gt;
      RT/RTR22&lt;BR&gt;
      RT/RTR22&lt;BR&gt;
      RJ/RJR22&lt;BR&gt;
      RJ/RJR22&lt;BR&gt;
      RJ/RJR22&lt;BR&gt;
      RT/RTR26&lt;BR&gt;
      RT/RTR26&lt;BR&gt;
      RT/RTR26&lt;BR&gt;
      RJ/RJR26&lt;BR&gt;
      RJ/RJR26&lt;BR&gt;
      RJ/RJR26&lt;BR&gt;
      RJ/RJR26&lt;BR&gt;
      RJ/RJR26&lt;BR&gt;
      RJ/RJR26&lt;BR&gt;
      RT/RTR24&lt;BR&gt;
      RT/RTR24&lt;BR&gt;
      RT/RTR24&lt;BR&gt;
      RJ/RJR24&lt;BR&gt;
      RJ/RJR24&lt;BR&gt;
      RJ/RJR24&lt;BR&gt;
      RJ/RJR24&lt;BR&gt;
      RJ/RJR24&lt;BR&gt;
      RJ/RJR24&lt;BR&gt;
      -&lt;BR&gt;
      -&lt;BR&gt;
      -&lt;BR&gt;
      -&lt;BR&gt;
      -&lt;BR&gt;
      -&lt;BR&gt;
      -&lt;BR&gt;&lt;/FONT&gt;
    &lt;/TD&gt;
  &lt;/TR&gt;
  &lt;TR&gt;
    &lt;TD COLSPAN=8&gt;&amp;nbsp;
    &lt;/TD&gt;
  &lt;/TR&gt;
  &lt;TR&gt;
    &lt;TD COLSPAN=8&gt;
      &lt;FONT SIZE=4 FACE=ARIAL&gt;&lt;B&gt;SINGLE TURN&lt;/B&gt;&lt;/FONT&gt;
    &lt;/TD&gt;
  &lt;/TR&gt;
  &lt;TR&gt;
    &lt;TD ALIGN=CENTER&gt;
      &lt;FONT SIZE=3 FACE=ARIAL&gt;&lt;B&gt;BOURN&lt;/B&gt;&lt;/FONT&gt;
    &lt;/TD&gt;
    &lt;TD ALIGN=CENTER&gt;
      &lt;FONT SIZE=3 FACE=ARIAL&gt;&lt;B&gt;BI&amp;nbsp;TECH&lt;/B&gt;&lt;/FONT&gt;
    &lt;/TD&gt;
    &lt;TD ALIGN=CENTER&gt;
      &lt;FONT SIZE=3 FACE=ARIAL&gt;&lt;B&gt;DALE-VISHAY&lt;/B&gt;&lt;/FONT&gt;
    &lt;/TD&gt;
    &lt;TD ALIGN=CENTER&gt;
      &lt;FONT SIZE=3 FACE=ARIAL&gt;&lt;B&gt;PHILIPS/MEPCO&lt;/B&gt;&lt;/FONT&gt;
    &lt;/TD&gt;
    &lt;TD ALIGN=CENTER&gt;
      &lt;FONT SIZE=3 FACE=ARIAL&gt;&lt;B&gt;MURATA&lt;/B&gt;&lt;/FONT&gt;
    &lt;/TD&gt;
    &lt;TD ALIGN=CENTER&gt;
      &lt;FONT SIZE=3 FACE=ARIAL&gt;&lt;B&gt;PANASONIC&lt;/B&gt;&lt;/FONT&gt;
    &lt;/TD&gt;
    &lt;TD ALIGN=CENTER&gt;
      &lt;FONT SIZE=3 FACE=ARIAL&gt;&lt;B&gt;SPECTROL&lt;/B&gt;&lt;/FONT&gt;
    &lt;/TD&gt;
    &lt;TD ALIGN=CENTER&gt;
      &lt;FONT SIZE=3 FACE=ARIAL&gt;&lt;B&gt;MILSPEC&lt;/B&gt;&lt;/FONT&gt;
    &lt;/TD&gt;
  &lt;/TR&gt;
  &lt;TR&gt;
    &lt;TD BGCOLOR="#cccccc" ALIGN=CENTER&gt;&lt;FONT FACE=ARIAL SIZE=3&gt;
      3323P&lt;BR&gt;
      3323S&lt;BR&gt;
      3323W&lt;BR&gt;
      3329H&lt;BR&gt;
      3329P&lt;BR&gt;
      3329W&lt;BR&gt;
      3339H&lt;BR&gt;
      3339P&lt;BR&gt;
      3339W&lt;BR&gt;
      3352E&lt;BR&gt;
      3352H&lt;BR&gt;
      3352K&lt;BR&gt;
      3352P&lt;BR&gt;
      3352T&lt;BR&gt;
      3352V&lt;BR&gt;
      3352W&lt;BR&gt;
      3362H&lt;BR&gt;
      3362M&lt;BR&gt;
      3362P&lt;BR&gt;
      3362R&lt;BR&gt;
      3362S&lt;BR&gt;
      3362U&lt;BR&gt;
      3362W&lt;BR&gt;
      3362X&lt;BR&gt;
      3386B&lt;BR&gt;
      3386C&lt;BR&gt;
      3386F&lt;BR&gt;
      3386H&lt;BR&gt;
      3386K&lt;BR&gt;
      3386M&lt;BR&gt;
      3386P&lt;BR&gt;
      3386S&lt;BR&gt;
      3386W&lt;BR&gt;
      3386X&lt;BR&gt;&lt;/FONT&gt;
    &lt;/TD&gt;
    &lt;TD BGCOLOR="#cccccc" ALIGN=CENTER&gt;&lt;FONT FACE=ARIAL SIZE=3&gt;
      25P&lt;BR&gt;
      25S&lt;BR&gt;
      25RX&lt;BR&gt;
      82P&lt;BR&gt;
      82M&lt;BR&gt;
      82PA&lt;BR&gt;
      -&lt;BR&gt;
      -&lt;BR&gt;
      -&lt;BR&gt;
      91E&lt;BR&gt;
      91X&lt;BR&gt;
      91T&lt;BR&gt;
      91B&lt;BR&gt;
      91A&lt;BR&gt;
      91V&lt;BR&gt;
      91W&lt;BR&gt;
      25W&lt;BR&gt;
      25V&lt;BR&gt;
      25P&lt;BR&gt;
      -&lt;BR&gt;
      25S&lt;BR&gt;
      25U&lt;BR&gt;
      25RX&lt;BR&gt;
      25X&lt;BR&gt;
      72XW&lt;BR&gt;
      72XL&lt;BR&gt;
      72PM&lt;BR&gt;
      72RX&lt;BR&gt;
      -&lt;BR&gt;
      72PX&lt;BR&gt;
      72P&lt;BR&gt;
      72RXW&lt;BR&gt;
      72RXL&lt;BR&gt;
      72X&lt;BR&gt;&lt;/FONT&gt;
    &lt;/TD&gt;
    &lt;TD BGCOLOR="#cccccc" ALIGN=CENTER&gt;&lt;FONT FACE=ARIAL SIZE=3&gt;
      -&lt;BR&gt;
      -&lt;BR&gt;
      -&lt;BR&gt;
      T7YB&lt;BR&gt;
      T7YA&lt;BR&gt;
      -&lt;BR&gt;
      -&lt;BR&gt;
      -&lt;BR&gt;
      -&lt;BR&gt;
      -&lt;BR&gt;
      -&lt;BR&gt;
      -&lt;BR&gt;
      -&lt;BR&gt;
      -&lt;BR&gt;
      -&lt;BR&gt;
      -&lt;BR&gt;
      -&lt;BR&gt;
      TXD&lt;BR&gt;
      TYA&lt;BR&gt;
      TYP&lt;BR&gt;
      -&lt;BR&gt;
      TYD&lt;BR&gt;
      TX&lt;BR&gt;
      -&lt;BR&gt;
      150SX&lt;BR&gt;
      100SX&lt;BR&gt;
      102T&lt;BR&gt;
      101S&lt;BR&gt;
      190T&lt;BR&gt;
      150TX&lt;BR&gt;
      101&lt;BR&gt;
      -&lt;BR&gt;
      -&lt;BR&gt;
      101SX&lt;BR&gt;&lt;/FONT&gt;
    &lt;/TD&gt;
    &lt;TD BGCOLOR="#cccccc" ALIGN=CENTER&gt;&lt;FONT FACE=ARIAL SIZE=3&gt;
      ET6P&lt;BR&gt;
      ET6S&lt;BR&gt;
      ET6X&lt;BR&gt;
      RJ-6W/8014EMW&lt;BR&gt;
      RJ-6P/8014EMP&lt;BR&gt;
      RJ-6X/8014EMX&lt;BR&gt;
      TM7W&lt;BR&gt;
      TM7P&lt;BR&gt;
      TM7X&lt;BR&gt;
      -&lt;BR&gt;
      8017SMS&lt;BR&gt;
      -&lt;BR&gt;
      8017SMB&lt;BR&gt;
      8017SMA&lt;BR&gt;
      -&lt;BR&gt;
      -&lt;BR&gt;
      CT-6W&lt;BR&gt;
      CT-6H&lt;BR&gt;
      CT-6P&lt;BR&gt;
      CT-6R&lt;BR&gt;
      -&lt;BR&gt;
      CT-6V&lt;BR&gt;
      CT-6X&lt;BR&gt;
      -&lt;BR&gt;
      -&lt;BR&gt;
      8038EKV&lt;BR&gt;
      -&lt;BR&gt;
      8038EKX&lt;BR&gt;
      -&lt;BR&gt;
      -&lt;BR&gt;
      8038EKP&lt;BR&gt;
      8038EKZ&lt;BR&gt;
      8038EKW&lt;BR&gt;
      -&lt;BR&gt;&lt;/FONT&gt;
    &lt;/TD&gt;
    &lt;TD BGCOLOR="#cccccc" ALIGN=CENTER&gt;&lt;FONT FACE=ARIAL SIZE=3&gt;
      -&lt;BR&gt;
      -&lt;BR&gt;
      -&lt;BR&gt;
      3321H&lt;BR&gt;
      3321P&lt;BR&gt;
      3321N&lt;BR&gt;
      1102H&lt;BR&gt;
      1102P&lt;BR&gt;
      1102T&lt;BR&gt;
      RVA0911V304A&lt;BR&gt;
      -&lt;BR&gt;
      RVA0911H413A&lt;BR&gt;
      RVG0707V100A&lt;BR&gt;
      RVA0607V(H)306A&lt;BR&gt;
      RVA1214H213A&lt;BR&gt;
      -&lt;BR&gt;
      -&lt;BR&gt;
      -&lt;BR&gt;
      -&lt;BR&gt;
      -&lt;BR&gt;
      -&lt;BR&gt;
      -&lt;BR&gt;
      -&lt;BR&gt;
      -&lt;BR&gt;
      3104B&lt;BR&gt;
      3104C&lt;BR&gt;
      3104F&lt;BR&gt;
      3104H&lt;BR&gt;
      -&lt;BR&gt;
      3104M&lt;BR&gt;
      3104P&lt;BR&gt;
      3104S&lt;BR&gt;
      3104W&lt;BR&gt;
      3104X&lt;BR&gt;&lt;/FONT&gt;
    &lt;/TD&gt;
    &lt;TD BGCOLOR="#cccccc" ALIGN=CENTER&gt;&lt;FONT FACE=ARIAL SIZE=3&gt;
      EVMQ0G&lt;BR&gt;
      EVMQIG&lt;BR&gt;
      EVMQ3G&lt;BR&gt;
      EVMS0G&lt;BR&gt;
      EVMQ0G&lt;BR&gt;
      EVMG0G&lt;BR&gt;
      -&lt;BR&gt;
      -&lt;BR&gt;
      -&lt;BR&gt;
      EVMK4GA00B&lt;BR&gt;
      EVM30GA00B&lt;BR&gt;
      EVMK0GA00B&lt;BR&gt;
      EVM38GA00B&lt;BR&gt;
      EVMB6&lt;BR&gt;
      EVLQ0&lt;BR&gt;
      -&lt;BR&gt;
      EVMMSG&lt;BR&gt;
      EVMMBG&lt;BR&gt;
      EVMMAG&lt;BR&gt;
      -&lt;BR&gt;
      -&lt;BR&gt;
      EVMMCS&lt;BR&gt;
      -&lt;BR&gt;
      -&lt;BR&gt;
      -&lt;BR&gt;
      -&lt;BR&gt;
      -&lt;BR&gt;
      EVMM1&lt;BR&gt;
      -&lt;BR&gt;
      -&lt;BR&gt;
      EVMM0&lt;BR&gt;
      -&lt;BR&gt;
      -&lt;BR&gt;
      EVMM3&lt;BR&gt;&lt;/FONT&gt;
    &lt;/TD&gt;
    &lt;TD BGCOLOR="#cccccc" ALIGN=CENTER&gt;&lt;FONT FACE=ARIAL SIZE=3&gt;
      -&lt;BR&gt;
      -&lt;BR&gt;
      -&lt;BR&gt;
      62-3-1&lt;BR&gt;
      62-1-2&lt;BR&gt;
      -&lt;BR&gt;
      -&lt;BR&gt;
      -&lt;BR&gt;
      -&lt;BR&gt;
      -&lt;BR&gt;
      -&lt;BR&gt;
      -&lt;BR&gt;
      -&lt;BR&gt;
      -&lt;BR&gt;
      -&lt;BR&gt;
      -&lt;BR&gt;
      67R&lt;BR&gt;
      -&lt;BR&gt;
      67P&lt;BR&gt;
      -&lt;BR&gt;
      -&lt;BR&gt;
      -&lt;BR&gt;
      -&lt;BR&gt;
      67X&lt;BR&gt;
      63V&lt;BR&gt;
      63S&lt;BR&gt;
      63M&lt;BR&gt;
      -&lt;BR&gt;
      -&lt;BR&gt;
      63H&lt;BR&gt;
      63P&lt;BR&gt;
      -&lt;BR&gt;
      -&lt;BR&gt;
      63X&lt;BR&gt;&lt;/FONT&gt;
    &lt;/TD&gt;
    &lt;TD BGCOLOR="#cccccc" ALIGN=CENTER&gt;&lt;FONT FACE=ARIAL SIZE=3&gt;
      -&lt;BR&gt;
      -&lt;BR&gt;
      -&lt;BR&gt;
      RJ/RJR50&lt;BR&gt;
      RJ/RJR50&lt;BR&gt;
      RJ/RJR50&lt;BR&gt;
      -&lt;BR&gt;
      -&lt;BR&gt;
      -&lt;BR&gt;
      -&lt;BR&gt;
      -&lt;BR&gt;
      -&lt;BR&gt;
      -&lt;BR&gt;
      -&lt;BR&gt;
      -&lt;BR&gt;
      -&lt;BR&gt;
      -&lt;BR&gt;
      -&lt;BR&gt;
      -&lt;BR&gt;
      -&lt;BR&gt;
      -&lt;BR&gt;
      -&lt;BR&gt;
      -&lt;BR&gt;
      -&lt;BR&gt;
      -&lt;BR&gt;
      -&lt;BR&gt;
      -&lt;BR&gt;
      -&lt;BR&gt;
      -&lt;BR&gt;
      -&lt;BR&gt;
      -&lt;BR&gt;
      -&lt;BR&gt;
      -&lt;BR&gt;
      -&lt;BR&gt;&lt;/FONT&gt;
    &lt;/TD&gt;
  &lt;/TR&gt;
&lt;/TABLE&gt;
&lt;P&gt;&amp;nbsp;&lt;P&gt;
&lt;TABLE BORDER=0 CELLSPACING=1 CELLPADDING=3&gt;
  &lt;TR&gt;
    &lt;TD COLSPAN=7&gt;
      &lt;FONT color="#0000FF" SIZE=4 FACE=ARIAL&gt;&lt;B&gt;SMD TRIM-POT CROSS REFERENCE&lt;/B&gt;&lt;/FONT&gt;
      &lt;P&gt;
      &lt;FONT SIZE=4 FACE=ARIAL&gt;&lt;B&gt;MULTI-TURN&lt;/B&gt;&lt;/FONT&gt;
    &lt;/TD&gt;
  &lt;/TR&gt;
  &lt;TR&gt;
    &lt;TD&gt;
      &lt;FONT SIZE=3 FACE=ARIAL&gt;&lt;B&gt;BOURNS&lt;/B&gt;&lt;/FONT&gt;
    &lt;/TD&gt;
    &lt;TD&gt;
      &lt;FONT SIZE=3 FACE=ARIAL&gt;&lt;B&gt;BI&amp;nbsp;TECH&lt;/B&gt;&lt;/FONT&gt;
    &lt;/TD&gt;
    &lt;TD&gt;
      &lt;FONT SIZE=3 FACE=ARIAL&gt;&lt;B&gt;DALE-VISHAY&lt;/B&gt;&lt;/FONT&gt;
    &lt;/TD&gt;
    &lt;TD&gt;
      &lt;FONT SIZE=3 FACE=ARIAL&gt;&lt;B&gt;PHILIPS/MEPCO&lt;/B&gt;&lt;/FONT&gt;
    &lt;/TD&gt;
    &lt;TD&gt;
      &lt;FONT SIZE=3 FACE=ARIAL&gt;&lt;B&gt;PANASONIC&lt;/B&gt;&lt;/FONT&gt;
    &lt;/TD&gt;
    &lt;TD&gt;
      &lt;FONT SIZE=3 FACE=ARIAL&gt;&lt;B&gt;TOCOS&lt;/B&gt;&lt;/FONT&gt;
    &lt;/TD&gt;
    &lt;TD&gt;
      &lt;FONT SIZE=3 FACE=ARIAL&gt;&lt;B&gt;AUX/KYOCERA&lt;/B&gt;&lt;/FONT&gt;
    &lt;/TD&gt;
  &lt;/TR&gt;
  &lt;TR&gt;
    &lt;TD BGCOLOR="#cccccc" ALIGN=CENTER&gt;&lt;FONT FACE=ARIAL SIZE=3&gt;
      3224G&lt;BR&gt;
      3224J&lt;BR&gt;
      3224W&lt;BR&gt;
      3269P&lt;BR&gt;
      3269W&lt;BR&gt;
      3269X&lt;BR&gt;&lt;/FONT&gt;
    &lt;/TD&gt;
    &lt;TD BGCOLOR="#cccccc" ALIGN=CENTER&gt;&lt;FONT FACE=ARIAL SIZE=3&gt;
      44G&lt;BR&gt;
      44J&lt;BR&gt;
      44W&lt;BR&gt;
      84P&lt;BR&gt;
      84W&lt;BR&gt;
      84X&lt;BR&gt;&lt;/FONT&gt;
    &lt;/TD&gt;
    &lt;TD BGCOLOR="#cccccc" ALIGN=CENTER&gt;&lt;FONT FACE=ARIAL SIZE=3&gt;
      -&lt;BR&gt;
      -&lt;BR&gt;
      -&lt;BR&gt;
      ST63Z&lt;BR&gt;
      ST63Y&lt;BR&gt;
      -&lt;BR&gt;&lt;/FONT&gt;
    &lt;/TD&gt;
    &lt;TD BGCOLOR="#cccccc" ALIGN=CENTER&gt;&lt;FONT FACE=ARIAL SIZE=3&gt;
      -&lt;BR&gt;
      -&lt;BR&gt;
      -&lt;BR&gt;
      ST5P&lt;BR&gt;
      ST5W&lt;BR&gt;
      ST5X&lt;BR&gt;&lt;/FONT&gt;
    &lt;/TD&gt;
    &lt;TD BGCOLOR="#cccccc" ALIGN=CENTER&gt;&lt;FONT FACE=ARIAL SIZE=3&gt;
      -&lt;BR&gt;
      -&lt;BR&gt;
      -&lt;BR&gt;
      -&lt;BR&gt;
      -&lt;BR&gt;
      -&lt;BR&gt;&lt;/FONT&gt;
    &lt;/TD&gt;
    &lt;TD BGCOLOR="#cccccc" ALIGN=CENTER&gt;&lt;FONT FACE=ARIAL SIZE=3&gt;
      -&lt;BR&gt;
      -&lt;BR&gt;
      -&lt;BR&gt;
      -&lt;BR&gt;
      -&lt;BR&gt;
      -&lt;BR&gt;&lt;/FONT&gt;
    &lt;/TD&gt;
    &lt;TD BGCOLOR="#cccccc" ALIGN=CENTER&gt;&lt;FONT FACE=ARIAL SIZE=3&gt;
      -&lt;BR&gt;
      -&lt;BR&gt;
      -&lt;BR&gt;
      -&lt;BR&gt;
      -&lt;BR&gt;
      -&lt;BR&gt;&lt;/FONT&gt;
    &lt;/TD&gt;
  &lt;/TR&gt;
  &lt;TR&gt;
    &lt;TD COLSPAN=7&gt;&amp;nbsp;
    &lt;/TD&gt;
  &lt;/TR&gt;
  &lt;TR&gt;
    &lt;TD COLSPAN=7&gt;
      &lt;FONT SIZE=4 FACE=ARIAL&gt;&lt;B&gt;SINGLE TURN&lt;/B&gt;&lt;/FONT&gt;
    &lt;/TD&gt;
  &lt;/TR&gt;
  &lt;TR&gt;
    &lt;TD&gt;
      &lt;FONT SIZE=3 FACE=ARIAL&gt;&lt;B&gt;BOURNS&lt;/B&gt;&lt;/FONT&gt;
    &lt;/TD&gt;
    &lt;TD&gt;
      &lt;FONT SIZE=3 FACE=ARIAL&gt;&lt;B&gt;BI&amp;nbsp;TECH&lt;/B&gt;&lt;/FONT&gt;
    &lt;/TD&gt;
    &lt;TD&gt;
      &lt;FONT SIZE=3 FACE=ARIAL&gt;&lt;B&gt;DALE-VISHAY&lt;/B&gt;&lt;/FONT&gt;
    &lt;/TD&gt;
    &lt;TD&gt;
      &lt;FONT SIZE=3 FACE=ARIAL&gt;&lt;B&gt;PHILIPS/MEPCO&lt;/B&gt;&lt;/FONT&gt;
    &lt;/TD&gt;
    &lt;TD&gt;
      &lt;FONT SIZE=3 FACE=ARIAL&gt;&lt;B&gt;PANASONIC&lt;/B&gt;&lt;/FONT&gt;
    &lt;/TD&gt;
    &lt;TD&gt;
      &lt;FONT SIZE=3 FACE=ARIAL&gt;&lt;B&gt;TOCOS&lt;/B&gt;&lt;/FONT&gt;
    &lt;/TD&gt;
    &lt;TD&gt;
      &lt;FONT SIZE=3 FACE=ARIAL&gt;&lt;B&gt;AUX/KYOCERA&lt;/B&gt;&lt;/FONT&gt;
    &lt;/TD&gt;
  &lt;/TR&gt;
  &lt;TR&gt;
    &lt;TD BGCOLOR="#cccccc" ALIGN=CENTER&gt;&lt;FONT FACE=ARIAL SIZE=3&gt;
      3314G&lt;BR&gt;
      3314J&lt;BR&gt;
      3364A/B&lt;BR&gt;
      3364C/D&lt;BR&gt;
      3364W/X&lt;BR&gt;
      3313G&lt;BR&gt;
      3313J&lt;BR&gt;&lt;/FONT&gt;
    &lt;/TD&gt;
    &lt;TD BGCOLOR="#cccccc" ALIGN=CENTER&gt;&lt;FONT FACE=ARIAL SIZE=3&gt;
      23B&lt;BR&gt;
      23A&lt;BR&gt;
      21X&lt;BR&gt;
      21W&lt;BR&gt;
      -&lt;BR&gt;
      22B&lt;BR&gt;
      22A&lt;BR&gt;&lt;/FONT&gt;
    &lt;/TD&gt;
    &lt;TD BGCOLOR="#cccccc" ALIGN=CENTER&gt;&lt;FONT FACE=ARIAL SIZE=3&gt;
      ST5YL/ST53YL&lt;BR&gt;
      ST5YJ/5T53YJ&lt;BR&gt;
      ST-23A&lt;BR&gt;
      ST-22B&lt;BR&gt;
      ST-22&lt;BR&gt;
      -&lt;BR&gt;
      -&lt;BR&gt;&lt;/FONT&gt;
    &lt;/TD&gt;
    &lt;TD BGCOLOR="#cccccc" ALIGN=CENTER&gt;&lt;FONT FACE=ARIAL SIZE=3&gt;
      ST-4B&lt;BR&gt;
      ST-4A&lt;BR&gt;
      -&lt;BR&gt;
      -&lt;BR&gt;
      -&lt;BR&gt;
      ST-3B&lt;BR&gt;
      ST-3A&lt;BR&gt;&lt;/FONT&gt;
    &lt;/TD&gt;
    &lt;TD BGCOLOR="#cccccc" ALIGN=CENTER&gt;&lt;FONT FACE=ARIAL SIZE=3&gt;
      -&lt;BR&gt;
      EVM-6YS&lt;BR&gt;
      EVM-1E&lt;BR&gt;
      EVM-1G&lt;BR&gt;
      EVM-1D&lt;BR&gt;
      -&lt;BR&gt;
      -&lt;BR&gt;&lt;/FONT&gt;
    &lt;/TD&gt;
    &lt;TD BGCOLOR="#cccccc" ALIGN=CENTER&gt;&lt;FONT FACE=ARIAL SIZE=3&gt;
      G4B&lt;BR&gt;
      G4A&lt;BR&gt;
      TR04-3S1&lt;BR&gt;
      TRG04-2S1&lt;BR&gt;
      -&lt;BR&gt;
      -&lt;BR&gt;
      -&lt;BR&gt;&lt;/FONT&gt;
    &lt;/TD&gt;
    &lt;TD BGCOLOR="#cccccc" ALIGN=CENTER&gt;&lt;FONT FACE=ARIAL SIZE=3&gt;
      -&lt;BR&gt;
      -&lt;BR&gt;
      DVR-43A&lt;BR&gt;
      CVR-42C&lt;BR&gt;
      CVR-42A/C&lt;BR&gt;
      -&lt;BR&gt;
      -&lt;BR&gt;&lt;/FONT&gt;
    &lt;/TD&gt;
  &lt;/TR&gt;
&lt;/TABLE&gt;
&lt;P&gt;
&lt;FONT SIZE=4 FACE=ARIAL&gt;&lt;B&gt;ALT =&amp;nbsp;ALTERNATE&lt;/B&gt;&lt;/FONT&gt;
&lt;P&gt;

&amp;nbsp;
&lt;P&gt;
&lt;/td&gt;
&lt;/tr&gt;
&lt;/table&gt;
&lt;/BODY&gt;&lt;/HTML&gt;</description>
<packages>
<package name="R0805">
<description>&lt;b&gt;RESISTOR&lt;/b&gt;&lt;p&gt;</description>
<wire x1="-0.41" y1="0.635" x2="0.41" y2="0.635" width="0.1524" layer="51"/>
<wire x1="-0.41" y1="-0.635" x2="0.41" y2="-0.635" width="0.1524" layer="51"/>
<wire x1="-1.973" y1="0.983" x2="1.973" y2="0.983" width="0.0508" layer="39"/>
<wire x1="1.973" y1="0.983" x2="1.973" y2="-0.983" width="0.0508" layer="39"/>
<wire x1="1.973" y1="-0.983" x2="-1.973" y2="-0.983" width="0.0508" layer="39"/>
<wire x1="-1.973" y1="-0.983" x2="-1.973" y2="0.983" width="0.0508" layer="39"/>
<smd name="1" x="-0.95" y="0" dx="1.3" dy="1.5" layer="1"/>
<smd name="2" x="0.95" y="0" dx="1.3" dy="1.5" layer="1"/>
<text x="-0.635" y="1.27" size="1.27" layer="25">&gt;NAME</text>
<text x="-0.635" y="-2.54" size="1.27" layer="27">&gt;VALUE</text>
<rectangle x1="0.4064" y1="-0.6985" x2="1.0564" y2="0.7015" layer="51"/>
<rectangle x1="-1.0668" y1="-0.6985" x2="-0.4168" y2="0.7015" layer="51"/>
<rectangle x1="-0.1999" y1="-0.5001" x2="0.1999" y2="0.5001" layer="35"/>
</package>
<package name="C0805">
<description>&lt;b&gt;CAPACITOR&lt;/b&gt;&lt;p&gt;</description>
<wire x1="-1.973" y1="0.983" x2="1.973" y2="0.983" width="0.0508" layer="39"/>
<wire x1="1.973" y1="-0.983" x2="-1.973" y2="-0.983" width="0.0508" layer="39"/>
<wire x1="-1.973" y1="-0.983" x2="-1.973" y2="0.983" width="0.0508" layer="39"/>
<wire x1="-0.381" y1="0.66" x2="0.381" y2="0.66" width="0.1016" layer="51"/>
<wire x1="-0.356" y1="-0.66" x2="0.381" y2="-0.66" width="0.1016" layer="51"/>
<wire x1="1.973" y1="0.983" x2="1.973" y2="-0.983" width="0.0508" layer="39"/>
<smd name="1" x="-0.95" y="0" dx="1.3" dy="1.5" layer="1"/>
<smd name="2" x="0.95" y="0" dx="1.3" dy="1.5" layer="1"/>
<text x="-1.27" y="1.27" size="1.27" layer="25">&gt;NAME</text>
<text x="-1.27" y="-2.54" size="1.27" layer="27">&gt;VALUE</text>
<rectangle x1="-1.0922" y1="-0.7239" x2="-0.3421" y2="0.7262" layer="51"/>
<rectangle x1="0.3556" y1="-0.7239" x2="1.1057" y2="0.7262" layer="51"/>
<rectangle x1="-0.1001" y1="-0.4001" x2="0.1001" y2="0.4001" layer="35"/>
</package>
</packages>
</library>
<library name="holes">
<description>&lt;b&gt;Mounting Holes and Pads&lt;/b&gt;&lt;p&gt;
&lt;author&gt;Created by librarian@cadsoft.de&lt;/author&gt;</description>
<packages>
<package name="3,6-PAD-SQUARE">
<description>&lt;b&gt;MOUNTING PAD&lt;/b&gt; 3.6 mm, square</description>
<wire x1="3.429" y1="0" x2="2.921" y2="0" width="0.0508" layer="21"/>
<wire x1="0" y1="3.429" x2="0" y2="2.921" width="0.0508" layer="21"/>
<wire x1="-2.921" y1="0" x2="-3.429" y2="0" width="0.0508" layer="21"/>
<wire x1="0" y1="-2.921" x2="0" y2="-3.429" width="0.0508" layer="21"/>
<wire x1="-2.159" y1="0" x2="0" y2="-2.159" width="2.4892" layer="51" curve="90" cap="flat"/>
<wire x1="0" y1="2.159" x2="2.159" y2="0" width="2.4892" layer="51" curve="-90" cap="flat"/>
<wire x1="-3.81" y1="3.81" x2="3.81" y2="3.81" width="1.5" layer="43"/>
<wire x1="3.81" y1="3.81" x2="3.81" y2="-3.81" width="1.5" layer="43"/>
<wire x1="3.81" y1="-3.81" x2="-3.81" y2="-3.81" width="1.5" layer="43"/>
<wire x1="-3.81" y1="-3.81" x2="-3.81" y2="3.81" width="1.5" layer="43"/>
<wire x1="-3.81" y1="3.81" x2="3.81" y2="3.81" width="1.5" layer="40"/>
<wire x1="3.81" y1="3.81" x2="3.81" y2="-3.81" width="1.5" layer="40"/>
<wire x1="3.81" y1="-3.81" x2="-3.81" y2="-3.81" width="1.5" layer="40"/>
<wire x1="-3.81" y1="-3.81" x2="-3.81" y2="3.81" width="1.5" layer="40"/>
<wire x1="-3.81" y1="3.81" x2="3.81" y2="3.81" width="1.5" layer="39"/>
<wire x1="3.81" y1="3.81" x2="3.81" y2="-3.81" width="1.5" layer="39"/>
<wire x1="3.81" y1="-3.81" x2="-3.81" y2="-3.81" width="1.5" layer="39"/>
<wire x1="-3.81" y1="-3.81" x2="-3.81" y2="3.81" width="1.5" layer="39"/>
<wire x1="-3.556" y1="3.556" x2="3.556" y2="3.556" width="0.2032" layer="21"/>
<wire x1="3.556" y1="3.556" x2="3.556" y2="-3.556" width="0.2032" layer="21"/>
<wire x1="3.556" y1="-3.556" x2="-3.556" y2="-3.556" width="0.2032" layer="21"/>
<wire x1="-3.556" y1="-3.556" x2="-3.556" y2="3.556" width="0.2032" layer="21"/>
<circle x="0" y="0" radius="0.762" width="0.4572" layer="51"/>
<circle x="0" y="0" radius="1.9" width="0.2032" layer="21"/>
<pad name="B3,6" x="0" y="0" drill="3.6" diameter="5.842" shape="square"/>
</package>
<package name="3,6-PAD">
<description>&lt;b&gt;MOUNTING PAD&lt;/b&gt; 3.6 mm, round</description>
<wire x1="-2.159" y1="0" x2="0" y2="-2.159" width="2.4892" layer="51" curve="90" cap="flat"/>
<wire x1="0" y1="2.159" x2="2.159" y2="0" width="2.4892" layer="51" curve="-90" cap="flat"/>
<circle x="0" y="0" radius="3.429" width="0.1524" layer="21"/>
<circle x="0" y="0" radius="0.762" width="0.4572" layer="51"/>
<circle x="0" y="0" radius="3.683" width="1.397" layer="39"/>
<circle x="0" y="0" radius="3.683" width="1.397" layer="40"/>
<circle x="0" y="0" radius="3.556" width="1.016" layer="43"/>
<circle x="0" y="0" radius="1.9" width="0.2032" layer="21"/>
<pad name="B3,6" x="0" y="0" drill="3.6" diameter="5.842"/>
</package>
</packages>
</library>
</libraries>
<attributes>
</attributes>
<variantdefs>
</variantdefs>
<classes>
<class number="0" name="default" width="0" drill="0">
</class>
</classes>
<designrules name="LaenPCBOrder">
<description language="de">&lt;b&gt;EAGLE Design Rules&lt;/b&gt;
&lt;p&gt;
Die Standard-Design-Rules sind so gewählt, dass sie für 
die meisten Anwendungen passen. Sollte ihre Platine 
besondere Anforderungen haben, treffen Sie die erforderlichen
Einstellungen hier und speichern die Design Rules unter 
einem neuen Namen ab.</description>
<description language="en">&lt;b&gt;Laen's PCB Order Design Rules&lt;/b&gt;
&lt;p&gt;
Please make sure your boards conform to these design rules.</description>
<param name="layerSetup" value="(1*16)"/>
<param name="mtCopper" value="0.0356mm 0.0356mm 0.0356mm 0.0356mm 0.0356mm 0.0356mm 0.0356mm 0.0356mm 0.0356mm 0.0356mm 0.0356mm 0.0356mm 0.0356mm 0.0356mm 0.0356mm 0.0356mm"/>
<param name="mtIsolate" value="1.5011mm 0.1499mm 0.2007mm 0.1499mm 0.2007mm 0.1499mm 0.2007mm 0.1499mm 0.2007mm 0.1499mm 0.2007mm 0.1499mm 0.2007mm 0.1499mm 0.2007mm"/>
<param name="mdWireWire" value="6mil"/>
<param name="mdWirePad" value="6mil"/>
<param name="mdWireVia" value="6mil"/>
<param name="mdPadPad" value="6mil"/>
<param name="mdPadVia" value="6mil"/>
<param name="mdViaVia" value="6mil"/>
<param name="mdSmdPad" value="6mil"/>
<param name="mdSmdVia" value="6mil"/>
<param name="mdSmdSmd" value="6mil"/>
<param name="mdViaViaSameLayer" value="8mil"/>
<param name="mnLayersViaInSmd" value="2"/>
<param name="mdCopperDimension" value="15mil"/>
<param name="mdDrill" value="6mil"/>
<param name="mdSmdStop" value="0mil"/>
<param name="msWidth" value="6mil"/>
<param name="msDrill" value="13mil"/>
<param name="msMicroVia" value="13mil"/>
<param name="msBlindViaRatio" value="0.5"/>
<param name="rvPadTop" value="0.25"/>
<param name="rvPadInner" value="0.25"/>
<param name="rvPadBottom" value="0.25"/>
<param name="rvViaOuter" value="0.25"/>
<param name="rvViaInner" value="0.25"/>
<param name="rvMicroViaOuter" value="0.25"/>
<param name="rvMicroViaInner" value="0.25"/>
<param name="rlMinPadTop" value="7mil"/>
<param name="rlMaxPadTop" value="20mil"/>
<param name="rlMinPadInner" value="7mil"/>
<param name="rlMaxPadInner" value="20mil"/>
<param name="rlMinPadBottom" value="7mil"/>
<param name="rlMaxPadBottom" value="20mil"/>
<param name="rlMinViaOuter" value="7mil"/>
<param name="rlMaxViaOuter" value="20mil"/>
<param name="rlMinViaInner" value="7mil"/>
<param name="rlMaxViaInner" value="20mil"/>
<param name="rlMinMicroViaOuter" value="4mil"/>
<param name="rlMaxMicroViaOuter" value="20mil"/>
<param name="rlMinMicroViaInner" value="4mil"/>
<param name="rlMaxMicroViaInner" value="20mil"/>
<param name="psTop" value="-1"/>
<param name="psBottom" value="-1"/>
<param name="psFirst" value="-1"/>
<param name="psElongationLong" value="100"/>
<param name="psElongationOffset" value="100"/>
<param name="mvStopFrame" value="1"/>
<param name="mvCreamFrame" value="0"/>
<param name="mlMinStopFrame" value="3mil"/>
<param name="mlMaxStopFrame" value="3mil"/>
<param name="mlMinCreamFrame" value="0mil"/>
<param name="mlMaxCreamFrame" value="0mil"/>
<param name="mlViaStopLimit" value="0mil"/>
<param name="srRoundness" value="0"/>
<param name="srMinRoundness" value="0mil"/>
<param name="srMaxRoundness" value="0mil"/>
<param name="slThermalIsolate" value="10mil"/>
<param name="slThermalsForVias" value="0"/>
<param name="dpMaxLengthDifference" value="10mm"/>
<param name="dpGapFactor" value="2.5"/>
<param name="checkGrid" value="0"/>
<param name="checkAngle" value="0"/>
<param name="checkFont" value="1"/>
<param name="checkRestrict" value="1"/>
<param name="useDiameter" value="13"/>
<param name="maxErrors" value="50"/>
</designrules>
<autorouter>
<pass name="Default">
<param name="RoutingGrid" value="50mil"/>
<param name="AutoGrid" value="1"/>
<param name="Efforts" value="0"/>
<param name="TopRouterVariant" value="1"/>
<param name="tpViaShape" value="round"/>
<param name="PrefDir.1" value="|"/>
<param name="PrefDir.2" value="0"/>
<param name="PrefDir.3" value="0"/>
<param name="PrefDir.4" value="0"/>
<param name="PrefDir.5" value="0"/>
<param name="PrefDir.6" value="0"/>
<param name="PrefDir.7" value="0"/>
<param name="PrefDir.8" value="0"/>
<param name="PrefDir.9" value="0"/>
<param name="PrefDir.10" value="0"/>
<param name="PrefDir.11" value="0"/>
<param name="PrefDir.12" value="0"/>
<param name="PrefDir.13" value="0"/>
<param name="PrefDir.14" value="0"/>
<param name="PrefDir.15" value="0"/>
<param name="PrefDir.16" value="-"/>
<param name="cfVia" value="8"/>
<param name="cfNonPref" value="5"/>
<param name="cfChangeDir" value="2"/>
<param name="cfOrthStep" value="2"/>
<param name="cfDiagStep" value="3"/>
<param name="cfExtdStep" value="0"/>
<param name="cfBonusStep" value="1"/>
<param name="cfMalusStep" value="1"/>
<param name="cfPadImpact" value="4"/>
<param name="cfSmdImpact" value="4"/>
<param name="cfBusImpact" value="0"/>
<param name="cfHugging" value="3"/>
<param name="cfAvoid" value="4"/>
<param name="cfPolygon" value="10"/>
<param name="cfBase.1" value="0"/>
<param name="cfBase.2" value="1"/>
<param name="cfBase.3" value="1"/>
<param name="cfBase.4" value="1"/>
<param name="cfBase.5" value="1"/>
<param name="cfBase.6" value="1"/>
<param name="cfBase.7" value="1"/>
<param name="cfBase.8" value="1"/>
<param name="cfBase.9" value="1"/>
<param name="cfBase.10" value="1"/>
<param name="cfBase.11" value="1"/>
<param name="cfBase.12" value="1"/>
<param name="cfBase.13" value="1"/>
<param name="cfBase.14" value="1"/>
<param name="cfBase.15" value="1"/>
<param name="cfBase.16" value="0"/>
<param name="mnVias" value="20"/>
<param name="mnSegments" value="9999"/>
<param name="mnExtdSteps" value="9999"/>
<param name="mnRipupLevel" value="10"/>
<param name="mnRipupSteps" value="100"/>
<param name="mnRipupTotal" value="100"/>
</pass>
<pass name="Follow-me" refer="Default" active="yes">
</pass>
<pass name="Busses" refer="Default" active="yes">
<param name="cfNonPref" value="4"/>
<param name="cfBusImpact" value="4"/>
<param name="cfHugging" value="0"/>
<param name="mnVias" value="0"/>
</pass>
<pass name="Route" refer="Default" active="yes">
</pass>
<pass name="Optimize1" refer="Default" active="yes">
<param name="cfVia" value="99"/>
<param name="cfExtdStep" value="10"/>
<param name="cfHugging" value="1"/>
<param name="mnExtdSteps" value="1"/>
<param name="mnRipupLevel" value="0"/>
</pass>
<pass name="Optimize2" refer="Optimize1" active="yes">
<param name="cfNonPref" value="0"/>
<param name="cfChangeDir" value="6"/>
<param name="cfExtdStep" value="0"/>
<param name="cfBonusStep" value="2"/>
<param name="cfMalusStep" value="2"/>
<param name="cfPadImpact" value="2"/>
<param name="cfSmdImpact" value="2"/>
<param name="cfHugging" value="0"/>
</pass>
<pass name="Optimize3" refer="Optimize2" active="yes">
<param name="cfChangeDir" value="8"/>
<param name="cfPadImpact" value="0"/>
<param name="cfSmdImpact" value="0"/>
</pass>
<pass name="Optimize4" refer="Optimize3" active="yes">
<param name="cfChangeDir" value="25"/>
</pass>
</autorouter>
<elements>
<element name="ADC" library="neve_ims" package="SOP50P490X110-10N" value="ADS1015IDGST" x="16.51" y="16.51" smashed="yes">
<attribute name="MPN" value="ADS1015IDGST" x="16.51" y="16.51" size="1.778" layer="27" display="off"/>
<attribute name="PACKAGE" value="MSOP-10" x="16.51" y="16.51" size="1.778" layer="27" display="off"/>
<attribute name="OC_FARNELL" value="1778211" x="16.51" y="16.51" size="1.778" layer="27" display="off"/>
<attribute name="OC_NEWARK" value="35R0211" x="16.51" y="16.51" size="1.778" layer="27" display="off"/>
<attribute name="SUPPLIER" value="Texas Instruments" x="16.51" y="16.51" size="1.778" layer="27" display="off"/>
<attribute name="NAME" x="15.2146" y="13.462" size="1.27" layer="25" font="vector" ratio="10" rot="SR0"/>
<attribute name="VALUE" x="15.5956" y="6.35" size="1.27" layer="27" font="vector" ratio="10" rot="SR0"/>
</element>
<element name="ARDUINO_PRO_MICRO" library="SparkFun-Boards" package="ARDUINO_PRO_MICRO" value="ARDUINO_PRO_MICRO" x="16.51" y="33.02" smashed="yes" rot="R90">
<attribute name="NAME" x="33.528" y="36.322" size="1.27" layer="25" font="vector" rot="R180"/>
<attribute name="VALUE" x="57.15" y="42.545" size="1.27" layer="27" font="vector" rot="R180"/>
</element>
<element name="LOAD" library="pinhead" package="1X03" value="" x="29.21" y="13.97" smashed="yes" rot="R90">
<attribute name="NAME" x="28.8798" y="21.1328" size="1.27" layer="25" font="vector" ratio="10"/>
<attribute name="VALUE" x="32.385" y="10.16" size="1.27" layer="27" rot="R90"/>
</element>
<element name="CHARGE" library="pinhead" package="1X03" value="" x="5.08" y="13.97" smashed="yes" rot="R270">
<attribute name="NAME" x="0.9398" y="21.1328" size="1.27" layer="25" font="vector" ratio="10"/>
<attribute name="VALUE" x="1.905" y="17.78" size="1.27" layer="27" rot="R270"/>
</element>
<element name="R_SDA" library="resistor" package="R0805" value="10k" x="14.224" y="21.59" smashed="yes" rot="R180">
<attribute name="NAME" x="15.875" y="23.368" size="0.762" layer="25" rot="R180"/>
<attribute name="VALUE" x="14.859" y="24.13" size="1.27" layer="27" rot="R180"/>
</element>
<element name="R_SCL" library="resistor" package="R0805" value="10k" x="18.796" y="21.59" smashed="yes">
<attribute name="NAME" x="17.653" y="22.606" size="0.762" layer="25"/>
<attribute name="VALUE" x="18.161" y="19.05" size="1.27" layer="27"/>
</element>
<element name="C_ADC_BYPASS" library="resistor" package="C0805" value="100nf" x="20.828" y="19.304" smashed="yes">
<attribute name="NAME" x="23.368" y="18.288" size="0.635" layer="25" font="vector" rot="R90"/>
<attribute name="VALUE" x="19.558" y="16.764" size="1.27" layer="27" font="vector"/>
</element>
<element name="R_VDIV_H" library="resistor" package="R0805" value="20k" x="16.129" y="11.303" smashed="yes" rot="MR270">
<attribute name="NAME" x="17.399" y="8.636" size="0.762" layer="26" font="vector" rot="MR90"/>
<attribute name="VALUE" x="18.669" y="13.208" size="1.27" layer="28" font="vector" rot="MR270"/>
</element>
<element name="R_VDIV_L" library="resistor" package="R0805" value="10k" x="12.192" y="12.065" smashed="yes" rot="MR180">
<attribute name="NAME" x="9.525" y="14.097" size="0.762" layer="26" font="vector" rot="MR180"/>
<attribute name="VALUE" x="13.843" y="13.335" size="1.27" layer="28" font="vector" rot="MR0"/>
</element>
<element name="JP1" library="pinhead" package="1X03/90" value="" x="3.81" y="33.02" rot="R90"/>
<element name="R_5V_SENSE" library="resistor" package="R0805" value="10k" x="25.4" y="19.304" smashed="yes" rot="R180">
<attribute name="NAME" x="27.94" y="17.907" size="0.762" layer="25" rot="R90"/>
<attribute name="VALUE" x="26.035" y="21.844" size="1.27" layer="27" rot="R180"/>
</element>
<element name="H1" library="holes" package="3,6-PAD-SQUARE" value="MOUNT-PAD-SQUARE3.6" x="21.59" y="5.08"/>
<element name="H2" library="holes" package="3,6-PAD" value="MOUNT-PAD-ROUND3.6" x="10.16" y="5.08"/>
</elements>
<signals>
<signal name="GND" airwireshidden="yes">
<polygon width="0.3048" layer="16">
<vertex x="-1.905" y="47.625"/>
<vertex x="34.925" y="47.625"/>
<vertex x="34.925" y="-1.27"/>
<vertex x="-1.905" y="-1.27"/>
</polygon>
<polygon width="0.3048" layer="1">
<vertex x="-1.905" y="46.99"/>
<vertex x="34.925" y="46.99"/>
<vertex x="34.925" y="-1.905"/>
<vertex x="-1.905" y="-1.905"/>
</polygon>
<contactref element="ARDUINO_PRO_MICRO" pad="3"/>
<contactref element="ARDUINO_PRO_MICRO" pad="4"/>
<contactref element="LOAD" pad="3"/>
<contactref element="CHARGE" pad="3"/>
<contactref element="ARDUINO_PRO_MICRO" pad="23"/>
<contactref element="ADC" pad="3"/>
<contactref element="C_ADC_BYPASS" pad="2"/>
<via x="8.89" y="20.32" extent="1-16" drill="0.6" shape="square"/>
<via x="8.89" y="22.86" extent="1-16" drill="0.6" shape="square"/>
<contactref element="R_VDIV_L" pad="1"/>
<contactref element="JP1" pad="3"/>
<contactref element="H1" pad="B3,6"/>
</signal>
<signal name="N$26">
</signal>
<signal name="N$28">
</signal>
<signal name="N$29">
</signal>
<signal name="A_CHARGE">
<contactref element="CHARGE" pad="1"/>
<contactref element="ADC" pad="5"/>
<wire x1="14.3256" y1="15.5194" x2="8.6106" y2="15.5194" width="0.254" layer="1"/>
<wire x1="8.6106" y1="15.5194" x2="7.62" y2="16.51" width="0.254" layer="1"/>
<wire x1="7.62" y1="16.51" x2="5.08" y2="16.51" width="0.254" layer="1"/>
</signal>
<signal name="A_LOAD">
<contactref element="LOAD" pad="1"/>
<contactref element="ADC" pad="4"/>
<wire x1="14.3256" y1="16.002" x2="16.256" y2="16.002" width="0.254" layer="1"/>
<wire x1="16.256" y1="16.002" x2="19.558" y2="12.7" width="0.254" layer="1"/>
<wire x1="19.558" y1="12.7" x2="24.892" y2="12.7" width="0.254" layer="1"/>
<wire x1="24.892" y1="12.7" x2="29.21" y2="10.668" width="0.254" layer="1"/>
<wire x1="29.21" y1="10.668" x2="29.21" y2="11.43" width="0.254" layer="1"/>
</signal>
<signal name="5VDC">
<contactref element="ARDUINO_PRO_MICRO" pad="21"/>
<contactref element="ADC" pad="8"/>
<contactref element="LOAD" pad="2"/>
<contactref element="CHARGE" pad="2"/>
<contactref element="R_SDA" pad="2"/>
<contactref element="R_SCL" pad="2"/>
<contactref element="C_ADC_BYPASS" pad="1"/>
<wire x1="5.08" y1="13.97" x2="2.54" y2="13.97" width="0.6096" layer="1"/>
<wire x1="2.54" y1="13.97" x2="1.27" y2="15.24" width="0.6096" layer="1"/>
<wire x1="1.27" y1="15.24" x2="1.27" y2="21.59" width="0.6096" layer="1"/>
<wire x1="1.27" y1="21.59" x2="1.27" y2="36.83" width="0.6096" layer="1"/>
<wire x1="1.27" y1="36.83" x2="2.54" y2="38.1" width="0.6096" layer="1"/>
<wire x1="2.54" y1="38.1" x2="10.16" y2="38.1" width="0.6096" layer="1"/>
<wire x1="10.16" y1="38.1" x2="11.43" y2="39.37" width="0.6096" layer="1"/>
<wire x1="11.43" y1="39.37" x2="11.43" y2="40.64" width="0.6096" layer="1"/>
<wire x1="13.274" y1="21.59" x2="1.27" y2="21.59" width="0.254" layer="1"/>
<contactref element="ADC" pad="1"/>
<wire x1="14.3256" y1="17.5006" x2="15.5194" y2="17.5006" width="0.254" layer="1"/>
<wire x1="15.5194" y1="17.5006" x2="16.51" y2="16.51" width="0.254" layer="1"/>
<wire x1="16.51" y1="16.51" x2="18.6944" y2="16.51" width="0.254" layer="1"/>
<contactref element="R_5V_SENSE" pad="2"/>
<wire x1="24.45" y1="19.304" x2="22.606" y2="16.51" width="0.254" layer="1"/>
<wire x1="22.606" y1="16.51" x2="20.32" y2="16.51" width="0.254" layer="1"/>
<wire x1="20.32" y1="16.51" x2="18.6944" y2="16.51" width="0.254" layer="1"/>
<wire x1="19.746" y1="21.59" x2="19.878" y2="21.59" width="0.3048" layer="1"/>
<wire x1="19.878" y1="21.59" x2="19.878" y2="19.304" width="0.3048" layer="1"/>
<wire x1="19.878" y1="19.304" x2="20.32" y2="19.304" width="0.3048" layer="1"/>
<wire x1="20.32" y1="19.304" x2="20.32" y2="16.51" width="0.3048" layer="1"/>
<wire x1="14.3256" y1="17.5006" x2="13.274" y2="18.5522" width="0.3048" layer="1"/>
<wire x1="13.274" y1="18.5522" x2="13.274" y2="21.59" width="0.3048" layer="1"/>
<wire x1="5.08" y1="13.97" x2="7.62" y2="13.97" width="0.6096" layer="16"/>
<wire x1="7.62" y1="13.97" x2="8.89" y2="15.24" width="0.6096" layer="16"/>
<wire x1="8.89" y1="15.24" x2="24.13" y2="15.24" width="0.6096" layer="16"/>
<wire x1="24.13" y1="15.24" x2="25.4" y2="13.97" width="0.6096" layer="16"/>
<wire x1="25.4" y1="13.97" x2="29.21" y2="13.97" width="0.6096" layer="16"/>
</signal>
<signal name="SCL">
<contactref element="ADC" pad="10"/>
<contactref element="ARDUINO_PRO_MICRO" pad="6"/>
<contactref element="R_SCL" pad="1"/>
<wire x1="17.78" y1="22.86" x2="16.51" y2="24.13" width="0.254" layer="1"/>
<wire x1="16.51" y1="24.13" x2="16.51" y2="25.4" width="0.254" layer="1"/>
<wire x1="18.6944" y1="17.5006" x2="18.0594" y2="17.5006" width="0.254" layer="1"/>
<wire x1="18.0594" y1="17.5006" x2="17.78" y2="17.78" width="0.254" layer="1"/>
<wire x1="17.78" y1="22.86" x2="17.78" y2="21.656" width="0.254" layer="1"/>
<wire x1="17.78" y1="21.656" x2="17.846" y2="21.59" width="0.254" layer="1"/>
<wire x1="17.78" y1="17.78" x2="17.78" y2="21.524" width="0.254" layer="1"/>
<wire x1="17.78" y1="21.524" x2="17.846" y2="21.59" width="0.254" layer="1"/>
</signal>
<signal name="SDA">
<contactref element="ARDUINO_PRO_MICRO" pad="5"/>
<contactref element="ADC" pad="9"/>
<contactref element="R_SDA" pad="1"/>
<wire x1="15.24" y1="24.13" x2="13.97" y2="25.4" width="0.254" layer="1"/>
<wire x1="18.6944" y1="17.018" x2="17.272" y2="17.018" width="0.254" layer="1"/>
<wire x1="17.272" y1="17.018" x2="16.51" y2="17.78" width="0.254" layer="1"/>
<wire x1="16.51" y1="17.78" x2="16.51" y2="19.05" width="0.254" layer="1"/>
<wire x1="16.51" y1="19.05" x2="15.24" y2="20.32" width="0.254" layer="1"/>
<wire x1="15.24" y1="24.13" x2="15.24" y2="21.656" width="0.254" layer="1"/>
<wire x1="15.24" y1="21.656" x2="15.174" y2="21.59" width="0.254" layer="1"/>
<wire x1="15.24" y1="20.32" x2="15.24" y2="21.524" width="0.254" layer="1"/>
<wire x1="15.24" y1="21.524" x2="15.174" y2="21.59" width="0.254" layer="1"/>
</signal>
<signal name="12V_SENSE">
<contactref element="ADC" pad="6"/>
<via x="21.59" y="13.97" extent="1-16" drill="0.8" shape="octagon"/>
<wire x1="18.6944" y1="15.5194" x2="20.2438" y2="13.97" width="0.254" layer="1"/>
<wire x1="20.2438" y1="13.97" x2="21.59" y2="13.97" width="0.254" layer="1"/>
<contactref element="R_VDIV_L" pad="2"/>
<contactref element="R_VDIV_H" pad="1"/>
<wire x1="16.129" y1="12.253" x2="19.873" y2="12.253" width="0.6096" layer="16"/>
<wire x1="19.873" y1="12.253" x2="21.59" y2="13.97" width="0.6096" layer="16"/>
<wire x1="16.129" y1="12.253" x2="13.33" y2="12.253" width="0.6096" layer="16"/>
<wire x1="13.33" y1="12.253" x2="13.142" y2="12.065" width="0.6096" layer="16"/>
</signal>
<signal name="5V_SENSE">
<contactref element="ADC" pad="7"/>
<contactref element="R_5V_SENSE" pad="1"/>
<wire x1="18.6944" y1="16.002" x2="24.196" y2="16.002" width="0.254" layer="1"/>
<wire x1="24.196" y1="16.002" x2="26.35" y2="19.304" width="0.254" layer="1"/>
</signal>
<signal name="+12V">
<contactref element="R_VDIV_H" pad="2"/>
<contactref element="H2" pad="B3,6"/>
<wire x1="16.129" y1="10.353" x2="15.433" y2="10.353" width="0.6096" layer="16"/>
<wire x1="15.433" y1="10.353" x2="10.16" y2="5.08" width="0.6096" layer="16"/>
</signal>
<signal name="RX1">
<contactref element="ARDUINO_PRO_MICRO" pad="2"/>
<contactref element="JP1" pad="2"/>
<wire x1="7.62" y1="33.02" x2="8.89" y2="33.02" width="0.4064" layer="16"/>
<wire x1="8.89" y1="33.02" x2="10.16" y2="31.75" width="0.4064" layer="16"/>
<wire x1="10.16" y1="31.75" x2="10.16" y2="29.21" width="0.4064" layer="16"/>
<wire x1="10.16" y1="29.21" x2="6.35" y2="25.4" width="0.4064" layer="16"/>
</signal>
<signal name="TX1">
<contactref element="ARDUINO_PRO_MICRO" pad="1"/>
<contactref element="JP1" pad="1"/>
<wire x1="7.62" y1="30.48" x2="3.81" y2="26.67" width="0.4064" layer="16"/>
<wire x1="3.81" y1="26.67" x2="3.81" y2="25.4" width="0.4064" layer="16"/>
</signal>
<signal name="MOSI">
<contactref element="ARDUINO_PRO_MICRO" pad="14"/>
<via x="29.21" y="38.1" extent="1-16" drill="1"/>
<wire x1="29.21" y1="40.64" x2="29.21" y2="38.1" width="0.254" layer="16"/>
</signal>
<signal name="MISO">
<contactref element="ARDUINO_PRO_MICRO" pad="15"/>
<via x="26.67" y="38.1" extent="1-16" drill="1"/>
<wire x1="26.67" y1="40.64" x2="26.67" y2="38.1" width="0.254" layer="16"/>
</signal>
<signal name="SCK">
<contactref element="ARDUINO_PRO_MICRO" pad="16"/>
<via x="24.13" y="38.1" extent="1-16" drill="1"/>
<wire x1="24.13" y1="40.64" x2="24.13" y2="38.1" width="0.4064" layer="16"/>
</signal>
<signal name="D10">
<contactref element="ARDUINO_PRO_MICRO" pad="13"/>
<via x="31.75" y="38.1" extent="1-16" drill="1"/>
<wire x1="31.75" y1="40.64" x2="31.75" y2="38.1" width="0.254" layer="16"/>
</signal>
<signal name="A0">
<contactref element="ARDUINO_PRO_MICRO" pad="17"/>
<via x="21.59" y="44.45" extent="1-16" drill="1"/>
<wire x1="21.59" y1="40.64" x2="21.59" y2="44.45" width="0.254" layer="16"/>
</signal>
<signal name="A1">
<contactref element="ARDUINO_PRO_MICRO" pad="18"/>
<via x="19.05" y="44.45" extent="1-16" drill="1"/>
<wire x1="19.05" y1="40.64" x2="19.05" y2="44.45" width="0.254" layer="16"/>
</signal>
<signal name="A2">
<contactref element="ARDUINO_PRO_MICRO" pad="19"/>
<via x="16.51" y="44.45" extent="1-16" drill="1"/>
<wire x1="16.51" y1="40.64" x2="16.51" y2="44.45" width="0.254" layer="16"/>
</signal>
<signal name="A3">
<contactref element="ARDUINO_PRO_MICRO" pad="20"/>
<via x="13.97" y="44.45" extent="1-16" drill="1"/>
<wire x1="13.97" y1="40.64" x2="13.97" y2="44.45" width="0.254" layer="16"/>
</signal>
<signal name="RESET">
<contactref element="ARDUINO_PRO_MICRO" pad="22"/>
<via x="8.89" y="43.18" extent="1-16" drill="1"/>
<wire x1="8.89" y1="40.64" x2="8.89" y2="43.18" width="0.254" layer="16"/>
</signal>
<signal name="RAW">
<contactref element="ARDUINO_PRO_MICRO" pad="24"/>
<via x="1.27" y="41.91" extent="1-16" drill="1"/>
<wire x1="3.81" y1="40.64" x2="2.54" y2="40.64" width="0.254" layer="16"/>
<wire x1="2.54" y1="40.64" x2="1.27" y2="41.91" width="0.254" layer="16"/>
</signal>
<signal name="D9">
<contactref element="ARDUINO_PRO_MICRO" pad="12"/>
<via x="31.75" y="27.94" extent="1-16" drill="1"/>
<wire x1="31.75" y1="25.4" x2="31.75" y2="27.94" width="0.254" layer="16"/>
</signal>
<signal name="D8">
<contactref element="ARDUINO_PRO_MICRO" pad="11"/>
<via x="29.21" y="27.94" extent="1-16" drill="1"/>
<wire x1="29.21" y1="27.94" x2="29.21" y2="25.4" width="0.254" layer="16"/>
</signal>
<signal name="D7">
<contactref element="ARDUINO_PRO_MICRO" pad="10"/>
<via x="26.67" y="27.94" extent="1-16" drill="1"/>
<wire x1="26.67" y1="25.4" x2="26.67" y2="27.94" width="0.254" layer="16"/>
</signal>
<signal name="D6">
<contactref element="ARDUINO_PRO_MICRO" pad="9"/>
<via x="24.13" y="27.94" extent="1-16" drill="1"/>
<wire x1="24.13" y1="25.4" x2="24.13" y2="27.94" width="0.254" layer="16"/>
</signal>
<signal name="D5">
<contactref element="ARDUINO_PRO_MICRO" pad="8"/>
<via x="21.59" y="27.94" extent="1-16" drill="1"/>
<wire x1="21.59" y1="27.94" x2="21.59" y2="25.4" width="0.254" layer="16"/>
</signal>
<signal name="D4">
<contactref element="ARDUINO_PRO_MICRO" pad="7"/>
<via x="19.05" y="27.94" extent="1-16" drill="1"/>
<wire x1="19.05" y1="25.4" x2="19.05" y2="27.94" width="0.254" layer="16"/>
</signal>
</signals>
</board>
</drawing>
<compatibility>
<note version="6.3" minversion="6.2.2" severity="warning">
Since Version 6.2.2 text objects can contain more than one line,
which will not be processed correctly with this version.
</note>
</compatibility>
</eagle>
